%TF.GenerationSoftware,KiCad,Pcbnew,7.0.8*%
%TF.CreationDate,2023-11-07T01:33:30+01:00*%
%TF.ProjectId,Hagiwo HiHats - Main,48616769-776f-4204-9869-48617473202d,rev?*%
%TF.SameCoordinates,Original*%
%TF.FileFunction,Soldermask,Top*%
%TF.FilePolarity,Negative*%
%FSLAX46Y46*%
G04 Gerber Fmt 4.6, Leading zero omitted, Abs format (unit mm)*
G04 Created by KiCad (PCBNEW 7.0.8) date 2023-11-07 01:33:30*
%MOMM*%
%LPD*%
G01*
G04 APERTURE LIST*
G04 Aperture macros list*
%AMRoundRect*
0 Rectangle with rounded corners*
0 $1 Rounding radius*
0 $2 $3 $4 $5 $6 $7 $8 $9 X,Y pos of 4 corners*
0 Add a 4 corners polygon primitive as box body*
4,1,4,$2,$3,$4,$5,$6,$7,$8,$9,$2,$3,0*
0 Add four circle primitives for the rounded corners*
1,1,$1+$1,$2,$3*
1,1,$1+$1,$4,$5*
1,1,$1+$1,$6,$7*
1,1,$1+$1,$8,$9*
0 Add four rect primitives between the rounded corners*
20,1,$1+$1,$2,$3,$4,$5,0*
20,1,$1+$1,$4,$5,$6,$7,0*
20,1,$1+$1,$6,$7,$8,$9,0*
20,1,$1+$1,$8,$9,$2,$3,0*%
G04 Aperture macros list end*
%ADD10C,1.600000*%
%ADD11O,1.600000X1.600000*%
%ADD12R,1.100000X1.800000*%
%ADD13RoundRect,0.275000X0.275000X0.625000X-0.275000X0.625000X-0.275000X-0.625000X0.275000X-0.625000X0*%
%ADD14R,2.200000X2.200000*%
%ADD15O,2.200000X2.200000*%
%ADD16R,1.600000X1.600000*%
%ADD17R,1.700000X1.700000*%
%ADD18C,1.440000*%
%ADD19R,2.400000X1.600000*%
%ADD20O,2.400000X1.600000*%
%ADD21RoundRect,0.250000X0.600000X-0.600000X0.600000X0.600000X-0.600000X0.600000X-0.600000X-0.600000X0*%
%ADD22C,1.700000*%
%ADD23R,1.800000X1.100000*%
%ADD24RoundRect,0.275000X-0.625000X0.275000X-0.625000X-0.275000X0.625000X-0.275000X0.625000X0.275000X0*%
%ADD25O,1.700000X1.700000*%
G04 APERTURE END LIST*
D10*
%TO.C,C12*%
X131870000Y-138710000D03*
X131870000Y-133710000D03*
%TD*%
%TO.C,R23*%
X141500000Y-82440000D03*
D11*
X141500000Y-90060000D03*
%TD*%
D12*
%TO.C,Q5*%
X141500000Y-77270000D03*
D13*
X140230000Y-79340000D03*
X138960000Y-77270000D03*
%TD*%
D10*
%TO.C,C2*%
X130000000Y-112250000D03*
X130000000Y-117250000D03*
%TD*%
%TO.C,R31*%
X160620000Y-138630000D03*
D11*
X160620000Y-146250000D03*
%TD*%
D10*
%TO.C,R6*%
X132870000Y-121620000D03*
D11*
X132870000Y-114000000D03*
%TD*%
D10*
%TO.C,C15*%
X147750000Y-94250000D03*
X147750000Y-89250000D03*
%TD*%
%TO.C,R26*%
X144750000Y-76690000D03*
D11*
X144750000Y-84310000D03*
%TD*%
D10*
%TO.C,R16*%
X156630000Y-93500000D03*
D11*
X164250000Y-93500000D03*
%TD*%
D10*
%TO.C,R17*%
X156690000Y-102000000D03*
D11*
X164310000Y-102000000D03*
%TD*%
D10*
%TO.C,C8*%
X131010000Y-71280000D03*
X136010000Y-71280000D03*
%TD*%
%TO.C,C13*%
X156800000Y-123510000D03*
X161800000Y-123510000D03*
%TD*%
D14*
%TO.C,D8*%
X157710000Y-57580000D03*
D15*
X157710000Y-47420000D03*
%TD*%
D10*
%TO.C,R25*%
X132799724Y-82420000D03*
D11*
X132799724Y-90040000D03*
%TD*%
D10*
%TO.C,C14*%
X138500000Y-87440000D03*
X138500000Y-82440000D03*
%TD*%
D16*
%TO.C,D5*%
X135750000Y-82380000D03*
D11*
X135750000Y-90000000D03*
%TD*%
D10*
%TO.C,C19*%
X157120000Y-129960000D03*
X157120000Y-134960000D03*
%TD*%
D17*
%TO.C,TP2*%
X127000000Y-125000000D03*
%TD*%
D10*
%TO.C,R8*%
X164360000Y-110760000D03*
D11*
X156740000Y-110760000D03*
%TD*%
D10*
%TO.C,C22*%
X154620000Y-129960000D03*
X154620000Y-134960000D03*
%TD*%
D14*
%TO.C,D7*%
X132710000Y-47420000D03*
D15*
X132710000Y-57580000D03*
%TD*%
D10*
%TO.C,C10*%
X155000000Y-84250000D03*
X160000000Y-84250000D03*
%TD*%
D16*
%TO.C,D3*%
X156690000Y-105000000D03*
D11*
X164310000Y-105000000D03*
%TD*%
D10*
%TO.C,R22*%
X164360000Y-117260000D03*
D11*
X156740000Y-117260000D03*
%TD*%
D10*
%TO.C,R18*%
X155250000Y-81250000D03*
D11*
X147630000Y-81250000D03*
%TD*%
D17*
%TO.C,TP4*%
X163500000Y-134000000D03*
%TD*%
D10*
%TO.C,C9*%
X164250000Y-99000000D03*
X159250000Y-99000000D03*
%TD*%
D18*
%TO.C,RV7*%
X139670000Y-145750000D03*
X137130000Y-145750000D03*
X134590000Y-145750000D03*
%TD*%
D10*
%TO.C,R13*%
X136070000Y-68280000D03*
D11*
X128450000Y-68280000D03*
%TD*%
D10*
%TO.C,R24*%
X156800000Y-120510000D03*
D11*
X164420000Y-120510000D03*
%TD*%
D10*
%TO.C,R33*%
X147000000Y-127210000D03*
D11*
X154620000Y-127210000D03*
%TD*%
D10*
%TO.C,R9*%
X135750000Y-119000000D03*
D11*
X143370000Y-119000000D03*
%TD*%
D19*
%TO.C,U2*%
X144000000Y-130510000D03*
D20*
X144000000Y-133050000D03*
X144000000Y-135590000D03*
X144000000Y-138130000D03*
X144000000Y-140670000D03*
X144000000Y-143210000D03*
X144000000Y-145750000D03*
X151620000Y-145750000D03*
X151620000Y-143210000D03*
X151620000Y-140670000D03*
X151620000Y-138130000D03*
X151620000Y-135590000D03*
X151620000Y-133050000D03*
X151620000Y-130510000D03*
%TD*%
D16*
%TO.C,D6*%
X151810000Y-96810000D03*
D11*
X144190000Y-96810000D03*
%TD*%
D10*
%TO.C,C21*%
X149370000Y-122250000D03*
X154370000Y-122250000D03*
%TD*%
%TO.C,R14*%
X147690000Y-78000000D03*
D11*
X155310000Y-78000000D03*
%TD*%
D10*
%TO.C,R32*%
X163870000Y-146250000D03*
D11*
X163870000Y-138630000D03*
%TD*%
D10*
%TO.C,R15*%
X136130000Y-65030000D03*
D11*
X128510000Y-65030000D03*
%TD*%
D10*
%TO.C,C16*%
X147500000Y-84190000D03*
X152500000Y-84190000D03*
%TD*%
D16*
%TO.C,C23*%
X154210000Y-59000000D03*
D10*
X151710000Y-59000000D03*
%TD*%
D17*
%TO.C,TP1*%
X127000000Y-121250000D03*
%TD*%
D10*
%TO.C,C24*%
X149300000Y-108260000D03*
X154300000Y-108260000D03*
%TD*%
%TO.C,R7*%
X143300000Y-114510000D03*
D11*
X135680000Y-114510000D03*
%TD*%
D10*
%TO.C,R2*%
X156740000Y-114010000D03*
D11*
X164360000Y-114010000D03*
%TD*%
D10*
%TO.C,R11*%
X134870000Y-131370000D03*
D11*
X134870000Y-123750000D03*
%TD*%
D10*
%TO.C,C18*%
X131190000Y-96190000D03*
X136190000Y-96190000D03*
%TD*%
D18*
%TO.C,RV9*%
X156120000Y-144750000D03*
X156120000Y-142210000D03*
X156120000Y-139670000D03*
%TD*%
D10*
%TO.C,C3*%
X133300000Y-111760000D03*
X133300000Y-106760000D03*
%TD*%
%TO.C,R27*%
X144750000Y-86560000D03*
D11*
X144750000Y-94180000D03*
%TD*%
D19*
%TO.C,U1*%
X146250000Y-111210000D03*
D20*
X146250000Y-113750000D03*
X146250000Y-116290000D03*
X146250000Y-118830000D03*
X153870000Y-118830000D03*
X153870000Y-116290000D03*
X153870000Y-113750000D03*
X153870000Y-111210000D03*
%TD*%
D12*
%TO.C,Q4*%
X157020000Y-88080000D03*
D13*
X155750000Y-90150000D03*
X154480000Y-88080000D03*
%TD*%
D16*
%TO.C,D2*%
X136070000Y-74030000D03*
D11*
X128450000Y-74030000D03*
%TD*%
D21*
%TO.C,J4*%
X140130000Y-52250000D03*
D22*
X140130000Y-49710000D03*
X142670000Y-52250000D03*
X142670000Y-49710000D03*
X145210000Y-52250000D03*
X145210000Y-49710000D03*
X147750000Y-52250000D03*
X147750000Y-49710000D03*
X150290000Y-52250000D03*
X150290000Y-49710000D03*
%TD*%
D23*
%TO.C,Q6*%
X139330000Y-96670000D03*
D24*
X141400000Y-97940000D03*
X139330000Y-99210000D03*
%TD*%
D10*
%TO.C,C11*%
X164250000Y-96500000D03*
X159250000Y-96500000D03*
%TD*%
%TO.C,C7*%
X131870000Y-131210000D03*
X131870000Y-126210000D03*
%TD*%
%TO.C,C4*%
X135800000Y-108260000D03*
X140800000Y-108260000D03*
%TD*%
%TO.C,C17*%
X129120000Y-131750000D03*
X129120000Y-136750000D03*
%TD*%
D16*
%TO.C,C20*%
X138710000Y-59000000D03*
D10*
X136210000Y-59000000D03*
%TD*%
D18*
%TO.C,RV3*%
X139370000Y-129960000D03*
X139370000Y-127420000D03*
X139370000Y-124880000D03*
%TD*%
D10*
%TO.C,R30*%
X128630000Y-99190000D03*
D11*
X136250000Y-99190000D03*
%TD*%
D10*
%TO.C,C5*%
X156800000Y-107760000D03*
X161800000Y-107760000D03*
%TD*%
D17*
%TO.C,TP3*%
X127000000Y-128750000D03*
%TD*%
D10*
%TO.C,R1*%
X135680000Y-111260000D03*
D11*
X143300000Y-111260000D03*
%TD*%
D17*
%TO.C,J8*%
X127250000Y-54080000D03*
D25*
X127250000Y-51540000D03*
X127250000Y-49000000D03*
%TD*%
D17*
%TO.C,J10*%
X127000000Y-112420000D03*
D25*
X127000000Y-114960000D03*
X127000000Y-117500000D03*
%TD*%
D17*
%TO.C,J6*%
X163500000Y-49000000D03*
D25*
X163500000Y-51540000D03*
X163500000Y-54080000D03*
X163500000Y-56620000D03*
X163500000Y-59160000D03*
X163500000Y-61700000D03*
%TD*%
D17*
%TO.C,J12*%
X163500000Y-127750000D03*
D25*
X163500000Y-130290000D03*
%TD*%
D10*
%TO.C,R28*%
X128870000Y-147370000D03*
D11*
X128870000Y-139750000D03*
%TD*%
D10*
%TO.C,R19*%
X134870000Y-141270000D03*
D11*
X134870000Y-133650000D03*
%TD*%
D18*
%TO.C,RV4*%
X139370000Y-140260000D03*
X139370000Y-137720000D03*
X139370000Y-135180000D03*
%TD*%
D12*
%TO.C,Q3*%
X141520000Y-71830000D03*
D13*
X140250000Y-73900000D03*
X138980000Y-71830000D03*
%TD*%
M02*
