%TF.GenerationSoftware,KiCad,Pcbnew,7.0.8*%
%TF.CreationDate,2023-11-07T01:36:42+01:00*%
%TF.ProjectId,Hagiwo HiHats,48616769-776f-4204-9869-486174732e6b,rev?*%
%TF.SameCoordinates,Original*%
%TF.FileFunction,Legend,Top*%
%TF.FilePolarity,Positive*%
%FSLAX46Y46*%
G04 Gerber Fmt 4.6, Leading zero omitted, Abs format (unit mm)*
G04 Created by KiCad (PCBNEW 7.0.8) date 2023-11-07 01:36:42*
%MOMM*%
%LPD*%
G01*
G04 APERTURE LIST*
%ADD10C,0.300000*%
%ADD11C,0.150000*%
%ADD12C,0.120000*%
%ADD13C,1.800000*%
G04 APERTURE END LIST*
D10*
X91173558Y-68239638D02*
X91173558Y-66239638D01*
X91173558Y-67192019D02*
X92316415Y-67192019D01*
X92316415Y-68239638D02*
X92316415Y-66239638D01*
X94125939Y-68239638D02*
X94125939Y-67192019D01*
X94125939Y-67192019D02*
X94030701Y-67001542D01*
X94030701Y-67001542D02*
X93840225Y-66906304D01*
X93840225Y-66906304D02*
X93459272Y-66906304D01*
X93459272Y-66906304D02*
X93268796Y-67001542D01*
X94125939Y-68144400D02*
X93935463Y-68239638D01*
X93935463Y-68239638D02*
X93459272Y-68239638D01*
X93459272Y-68239638D02*
X93268796Y-68144400D01*
X93268796Y-68144400D02*
X93173558Y-67953923D01*
X93173558Y-67953923D02*
X93173558Y-67763447D01*
X93173558Y-67763447D02*
X93268796Y-67572971D01*
X93268796Y-67572971D02*
X93459272Y-67477733D01*
X93459272Y-67477733D02*
X93935463Y-67477733D01*
X93935463Y-67477733D02*
X94125939Y-67382495D01*
X95935463Y-66906304D02*
X95935463Y-68525352D01*
X95935463Y-68525352D02*
X95840225Y-68715828D01*
X95840225Y-68715828D02*
X95744987Y-68811066D01*
X95744987Y-68811066D02*
X95554510Y-68906304D01*
X95554510Y-68906304D02*
X95268796Y-68906304D01*
X95268796Y-68906304D02*
X95078320Y-68811066D01*
X95935463Y-68144400D02*
X95744987Y-68239638D01*
X95744987Y-68239638D02*
X95364034Y-68239638D01*
X95364034Y-68239638D02*
X95173558Y-68144400D01*
X95173558Y-68144400D02*
X95078320Y-68049161D01*
X95078320Y-68049161D02*
X94983082Y-67858685D01*
X94983082Y-67858685D02*
X94983082Y-67287257D01*
X94983082Y-67287257D02*
X95078320Y-67096780D01*
X95078320Y-67096780D02*
X95173558Y-67001542D01*
X95173558Y-67001542D02*
X95364034Y-66906304D01*
X95364034Y-66906304D02*
X95744987Y-66906304D01*
X95744987Y-66906304D02*
X95935463Y-67001542D01*
X96887844Y-68239638D02*
X96887844Y-66906304D01*
X96887844Y-66239638D02*
X96792606Y-66334876D01*
X96792606Y-66334876D02*
X96887844Y-66430114D01*
X96887844Y-66430114D02*
X96983082Y-66334876D01*
X96983082Y-66334876D02*
X96887844Y-66239638D01*
X96887844Y-66239638D02*
X96887844Y-66430114D01*
X97649749Y-66906304D02*
X98030701Y-68239638D01*
X98030701Y-68239638D02*
X98411654Y-67287257D01*
X98411654Y-67287257D02*
X98792606Y-68239638D01*
X98792606Y-68239638D02*
X99173558Y-66906304D01*
X100221177Y-68239638D02*
X100030701Y-68144400D01*
X100030701Y-68144400D02*
X99935463Y-68049161D01*
X99935463Y-68049161D02*
X99840225Y-67858685D01*
X99840225Y-67858685D02*
X99840225Y-67287257D01*
X99840225Y-67287257D02*
X99935463Y-67096780D01*
X99935463Y-67096780D02*
X100030701Y-67001542D01*
X100030701Y-67001542D02*
X100221177Y-66906304D01*
X100221177Y-66906304D02*
X100506892Y-66906304D01*
X100506892Y-66906304D02*
X100697368Y-67001542D01*
X100697368Y-67001542D02*
X100792606Y-67096780D01*
X100792606Y-67096780D02*
X100887844Y-67287257D01*
X100887844Y-67287257D02*
X100887844Y-67858685D01*
X100887844Y-67858685D02*
X100792606Y-68049161D01*
X100792606Y-68049161D02*
X100697368Y-68144400D01*
X100697368Y-68144400D02*
X100506892Y-68239638D01*
X100506892Y-68239638D02*
X100221177Y-68239638D01*
X103268797Y-68239638D02*
X103268797Y-66239638D01*
X103268797Y-67192019D02*
X104411654Y-67192019D01*
X104411654Y-68239638D02*
X104411654Y-66239638D01*
X105364035Y-68239638D02*
X105364035Y-66906304D01*
X105364035Y-66239638D02*
X105268797Y-66334876D01*
X105268797Y-66334876D02*
X105364035Y-66430114D01*
X105364035Y-66430114D02*
X105459273Y-66334876D01*
X105459273Y-66334876D02*
X105364035Y-66239638D01*
X105364035Y-66239638D02*
X105364035Y-66430114D01*
X106316416Y-67477733D02*
X107840226Y-67477733D01*
X108792606Y-68239638D02*
X108792606Y-66239638D01*
X108792606Y-67192019D02*
X109935463Y-67192019D01*
X109935463Y-68239638D02*
X109935463Y-66239638D01*
X111744987Y-68239638D02*
X111744987Y-67192019D01*
X111744987Y-67192019D02*
X111649749Y-67001542D01*
X111649749Y-67001542D02*
X111459273Y-66906304D01*
X111459273Y-66906304D02*
X111078320Y-66906304D01*
X111078320Y-66906304D02*
X110887844Y-67001542D01*
X111744987Y-68144400D02*
X111554511Y-68239638D01*
X111554511Y-68239638D02*
X111078320Y-68239638D01*
X111078320Y-68239638D02*
X110887844Y-68144400D01*
X110887844Y-68144400D02*
X110792606Y-67953923D01*
X110792606Y-67953923D02*
X110792606Y-67763447D01*
X110792606Y-67763447D02*
X110887844Y-67572971D01*
X110887844Y-67572971D02*
X111078320Y-67477733D01*
X111078320Y-67477733D02*
X111554511Y-67477733D01*
X111554511Y-67477733D02*
X111744987Y-67382495D01*
X112411654Y-66906304D02*
X113173558Y-66906304D01*
X112697368Y-66239638D02*
X112697368Y-67953923D01*
X112697368Y-67953923D02*
X112792606Y-68144400D01*
X112792606Y-68144400D02*
X112983082Y-68239638D01*
X112983082Y-68239638D02*
X113173558Y-68239638D01*
X113744987Y-68144400D02*
X113935463Y-68239638D01*
X113935463Y-68239638D02*
X114316415Y-68239638D01*
X114316415Y-68239638D02*
X114506892Y-68144400D01*
X114506892Y-68144400D02*
X114602130Y-67953923D01*
X114602130Y-67953923D02*
X114602130Y-67858685D01*
X114602130Y-67858685D02*
X114506892Y-67668209D01*
X114506892Y-67668209D02*
X114316415Y-67572971D01*
X114316415Y-67572971D02*
X114030701Y-67572971D01*
X114030701Y-67572971D02*
X113840225Y-67477733D01*
X113840225Y-67477733D02*
X113744987Y-67287257D01*
X113744987Y-67287257D02*
X113744987Y-67192019D01*
X113744987Y-67192019D02*
X113840225Y-67001542D01*
X113840225Y-67001542D02*
X114030701Y-66906304D01*
X114030701Y-66906304D02*
X114316415Y-66906304D01*
X114316415Y-66906304D02*
X114506892Y-67001542D01*
D11*
X118991541Y-146703152D02*
X119229636Y-147369819D01*
X119229636Y-147369819D02*
X119467731Y-146703152D01*
X120372493Y-147369819D02*
X119801065Y-147369819D01*
X120086779Y-147369819D02*
X120086779Y-146369819D01*
X120086779Y-146369819D02*
X119991541Y-146512676D01*
X119991541Y-146512676D02*
X119896303Y-146607914D01*
X119896303Y-146607914D02*
X119801065Y-146655533D01*
X120801065Y-147274580D02*
X120848684Y-147322200D01*
X120848684Y-147322200D02*
X120801065Y-147369819D01*
X120801065Y-147369819D02*
X120753446Y-147322200D01*
X120753446Y-147322200D02*
X120801065Y-147274580D01*
X120801065Y-147274580D02*
X120801065Y-147369819D01*
X121467731Y-146369819D02*
X121562969Y-146369819D01*
X121562969Y-146369819D02*
X121658207Y-146417438D01*
X121658207Y-146417438D02*
X121705826Y-146465057D01*
X121705826Y-146465057D02*
X121753445Y-146560295D01*
X121753445Y-146560295D02*
X121801064Y-146750771D01*
X121801064Y-146750771D02*
X121801064Y-146988866D01*
X121801064Y-146988866D02*
X121753445Y-147179342D01*
X121753445Y-147179342D02*
X121705826Y-147274580D01*
X121705826Y-147274580D02*
X121658207Y-147322200D01*
X121658207Y-147322200D02*
X121562969Y-147369819D01*
X121562969Y-147369819D02*
X121467731Y-147369819D01*
X121467731Y-147369819D02*
X121372493Y-147322200D01*
X121372493Y-147322200D02*
X121324874Y-147274580D01*
X121324874Y-147274580D02*
X121277255Y-147179342D01*
X121277255Y-147179342D02*
X121229636Y-146988866D01*
X121229636Y-146988866D02*
X121229636Y-146750771D01*
X121229636Y-146750771D02*
X121277255Y-146560295D01*
X121277255Y-146560295D02*
X121324874Y-146465057D01*
X121324874Y-146465057D02*
X121372493Y-146417438D01*
X121372493Y-146417438D02*
X121467731Y-146369819D01*
X113696905Y-137744819D02*
X113696905Y-136744819D01*
X113696905Y-136744819D02*
X113935000Y-136744819D01*
X113935000Y-136744819D02*
X114077857Y-136792438D01*
X114077857Y-136792438D02*
X114173095Y-136887676D01*
X114173095Y-136887676D02*
X114220714Y-136982914D01*
X114220714Y-136982914D02*
X114268333Y-137173390D01*
X114268333Y-137173390D02*
X114268333Y-137316247D01*
X114268333Y-137316247D02*
X114220714Y-137506723D01*
X114220714Y-137506723D02*
X114173095Y-137601961D01*
X114173095Y-137601961D02*
X114077857Y-137697200D01*
X114077857Y-137697200D02*
X113935000Y-137744819D01*
X113935000Y-137744819D02*
X113696905Y-137744819D01*
X115125476Y-137078152D02*
X115125476Y-137744819D01*
X114887381Y-136697200D02*
X114649286Y-137411485D01*
X114649286Y-137411485D02*
X115268333Y-137411485D01*
X106254819Y-78135238D02*
X105778628Y-78468571D01*
X106254819Y-78706666D02*
X105254819Y-78706666D01*
X105254819Y-78706666D02*
X105254819Y-78325714D01*
X105254819Y-78325714D02*
X105302438Y-78230476D01*
X105302438Y-78230476D02*
X105350057Y-78182857D01*
X105350057Y-78182857D02*
X105445295Y-78135238D01*
X105445295Y-78135238D02*
X105588152Y-78135238D01*
X105588152Y-78135238D02*
X105683390Y-78182857D01*
X105683390Y-78182857D02*
X105731009Y-78230476D01*
X105731009Y-78230476D02*
X105778628Y-78325714D01*
X105778628Y-78325714D02*
X105778628Y-78706666D01*
X105254819Y-77849523D02*
X106254819Y-77516190D01*
X106254819Y-77516190D02*
X105254819Y-77182857D01*
X105254819Y-76420952D02*
X105254819Y-76611428D01*
X105254819Y-76611428D02*
X105302438Y-76706666D01*
X105302438Y-76706666D02*
X105350057Y-76754285D01*
X105350057Y-76754285D02*
X105492914Y-76849523D01*
X105492914Y-76849523D02*
X105683390Y-76897142D01*
X105683390Y-76897142D02*
X106064342Y-76897142D01*
X106064342Y-76897142D02*
X106159580Y-76849523D01*
X106159580Y-76849523D02*
X106207200Y-76801904D01*
X106207200Y-76801904D02*
X106254819Y-76706666D01*
X106254819Y-76706666D02*
X106254819Y-76516190D01*
X106254819Y-76516190D02*
X106207200Y-76420952D01*
X106207200Y-76420952D02*
X106159580Y-76373333D01*
X106159580Y-76373333D02*
X106064342Y-76325714D01*
X106064342Y-76325714D02*
X105826247Y-76325714D01*
X105826247Y-76325714D02*
X105731009Y-76373333D01*
X105731009Y-76373333D02*
X105683390Y-76420952D01*
X105683390Y-76420952D02*
X105635771Y-76516190D01*
X105635771Y-76516190D02*
X105635771Y-76706666D01*
X105635771Y-76706666D02*
X105683390Y-76801904D01*
X105683390Y-76801904D02*
X105731009Y-76849523D01*
X105731009Y-76849523D02*
X105826247Y-76897142D01*
X109630952Y-69954819D02*
X110202380Y-69954819D01*
X109916666Y-70954819D02*
X109916666Y-69954819D01*
X110726190Y-69954819D02*
X110916666Y-69954819D01*
X110916666Y-69954819D02*
X111011904Y-70002438D01*
X111011904Y-70002438D02*
X111107142Y-70097676D01*
X111107142Y-70097676D02*
X111154761Y-70288152D01*
X111154761Y-70288152D02*
X111154761Y-70621485D01*
X111154761Y-70621485D02*
X111107142Y-70811961D01*
X111107142Y-70811961D02*
X111011904Y-70907200D01*
X111011904Y-70907200D02*
X110916666Y-70954819D01*
X110916666Y-70954819D02*
X110726190Y-70954819D01*
X110726190Y-70954819D02*
X110630952Y-70907200D01*
X110630952Y-70907200D02*
X110535714Y-70811961D01*
X110535714Y-70811961D02*
X110488095Y-70621485D01*
X110488095Y-70621485D02*
X110488095Y-70288152D01*
X110488095Y-70288152D02*
X110535714Y-70097676D01*
X110535714Y-70097676D02*
X110630952Y-70002438D01*
X110630952Y-70002438D02*
X110726190Y-69954819D01*
X111583333Y-70954819D02*
X111583333Y-69954819D01*
X111583333Y-69954819D02*
X112154761Y-70954819D01*
X112154761Y-70954819D02*
X112154761Y-69954819D01*
X112630952Y-70431009D02*
X112964285Y-70431009D01*
X113107142Y-70954819D02*
X112630952Y-70954819D01*
X112630952Y-70954819D02*
X112630952Y-69954819D01*
X112630952Y-69954819D02*
X113107142Y-69954819D01*
X114773809Y-69954819D02*
X114297619Y-69954819D01*
X114297619Y-69954819D02*
X114250000Y-70431009D01*
X114250000Y-70431009D02*
X114297619Y-70383390D01*
X114297619Y-70383390D02*
X114392857Y-70335771D01*
X114392857Y-70335771D02*
X114630952Y-70335771D01*
X114630952Y-70335771D02*
X114726190Y-70383390D01*
X114726190Y-70383390D02*
X114773809Y-70431009D01*
X114773809Y-70431009D02*
X114821428Y-70526247D01*
X114821428Y-70526247D02*
X114821428Y-70764342D01*
X114821428Y-70764342D02*
X114773809Y-70859580D01*
X114773809Y-70859580D02*
X114726190Y-70907200D01*
X114726190Y-70907200D02*
X114630952Y-70954819D01*
X114630952Y-70954819D02*
X114392857Y-70954819D01*
X114392857Y-70954819D02*
X114297619Y-70907200D01*
X114297619Y-70907200D02*
X114250000Y-70859580D01*
X115440476Y-69954819D02*
X115535714Y-69954819D01*
X115535714Y-69954819D02*
X115630952Y-70002438D01*
X115630952Y-70002438D02*
X115678571Y-70050057D01*
X115678571Y-70050057D02*
X115726190Y-70145295D01*
X115726190Y-70145295D02*
X115773809Y-70335771D01*
X115773809Y-70335771D02*
X115773809Y-70573866D01*
X115773809Y-70573866D02*
X115726190Y-70764342D01*
X115726190Y-70764342D02*
X115678571Y-70859580D01*
X115678571Y-70859580D02*
X115630952Y-70907200D01*
X115630952Y-70907200D02*
X115535714Y-70954819D01*
X115535714Y-70954819D02*
X115440476Y-70954819D01*
X115440476Y-70954819D02*
X115345238Y-70907200D01*
X115345238Y-70907200D02*
X115297619Y-70859580D01*
X115297619Y-70859580D02*
X115250000Y-70764342D01*
X115250000Y-70764342D02*
X115202381Y-70573866D01*
X115202381Y-70573866D02*
X115202381Y-70335771D01*
X115202381Y-70335771D02*
X115250000Y-70145295D01*
X115250000Y-70145295D02*
X115297619Y-70050057D01*
X115297619Y-70050057D02*
X115345238Y-70002438D01*
X115345238Y-70002438D02*
X115440476Y-69954819D01*
X116202381Y-70954819D02*
X116202381Y-69954819D01*
X116773809Y-70954819D02*
X116345238Y-70383390D01*
X116773809Y-69954819D02*
X116202381Y-70526247D01*
X97107142Y-64204819D02*
X96773809Y-63728628D01*
X96535714Y-64204819D02*
X96535714Y-63204819D01*
X96535714Y-63204819D02*
X96916666Y-63204819D01*
X96916666Y-63204819D02*
X97011904Y-63252438D01*
X97011904Y-63252438D02*
X97059523Y-63300057D01*
X97059523Y-63300057D02*
X97107142Y-63395295D01*
X97107142Y-63395295D02*
X97107142Y-63538152D01*
X97107142Y-63538152D02*
X97059523Y-63633390D01*
X97059523Y-63633390D02*
X97011904Y-63681009D01*
X97011904Y-63681009D02*
X96916666Y-63728628D01*
X96916666Y-63728628D02*
X96535714Y-63728628D01*
X97488095Y-63300057D02*
X97535714Y-63252438D01*
X97535714Y-63252438D02*
X97630952Y-63204819D01*
X97630952Y-63204819D02*
X97869047Y-63204819D01*
X97869047Y-63204819D02*
X97964285Y-63252438D01*
X97964285Y-63252438D02*
X98011904Y-63300057D01*
X98011904Y-63300057D02*
X98059523Y-63395295D01*
X98059523Y-63395295D02*
X98059523Y-63490533D01*
X98059523Y-63490533D02*
X98011904Y-63633390D01*
X98011904Y-63633390D02*
X97440476Y-64204819D01*
X97440476Y-64204819D02*
X98059523Y-64204819D01*
X98678571Y-63204819D02*
X98773809Y-63204819D01*
X98773809Y-63204819D02*
X98869047Y-63252438D01*
X98869047Y-63252438D02*
X98916666Y-63300057D01*
X98916666Y-63300057D02*
X98964285Y-63395295D01*
X98964285Y-63395295D02*
X99011904Y-63585771D01*
X99011904Y-63585771D02*
X99011904Y-63823866D01*
X99011904Y-63823866D02*
X98964285Y-64014342D01*
X98964285Y-64014342D02*
X98916666Y-64109580D01*
X98916666Y-64109580D02*
X98869047Y-64157200D01*
X98869047Y-64157200D02*
X98773809Y-64204819D01*
X98773809Y-64204819D02*
X98678571Y-64204819D01*
X98678571Y-64204819D02*
X98583333Y-64157200D01*
X98583333Y-64157200D02*
X98535714Y-64109580D01*
X98535714Y-64109580D02*
X98488095Y-64014342D01*
X98488095Y-64014342D02*
X98440476Y-63823866D01*
X98440476Y-63823866D02*
X98440476Y-63585771D01*
X98440476Y-63585771D02*
X98488095Y-63395295D01*
X98488095Y-63395295D02*
X98535714Y-63300057D01*
X98535714Y-63300057D02*
X98583333Y-63252438D01*
X98583333Y-63252438D02*
X98678571Y-63204819D01*
X97047142Y-87704819D02*
X96713809Y-87228628D01*
X96475714Y-87704819D02*
X96475714Y-86704819D01*
X96475714Y-86704819D02*
X96856666Y-86704819D01*
X96856666Y-86704819D02*
X96951904Y-86752438D01*
X96951904Y-86752438D02*
X96999523Y-86800057D01*
X96999523Y-86800057D02*
X97047142Y-86895295D01*
X97047142Y-86895295D02*
X97047142Y-87038152D01*
X97047142Y-87038152D02*
X96999523Y-87133390D01*
X96999523Y-87133390D02*
X96951904Y-87181009D01*
X96951904Y-87181009D02*
X96856666Y-87228628D01*
X96856666Y-87228628D02*
X96475714Y-87228628D01*
X97999523Y-87704819D02*
X97428095Y-87704819D01*
X97713809Y-87704819D02*
X97713809Y-86704819D01*
X97713809Y-86704819D02*
X97618571Y-86847676D01*
X97618571Y-86847676D02*
X97523333Y-86942914D01*
X97523333Y-86942914D02*
X97428095Y-86990533D01*
X98618571Y-86704819D02*
X98713809Y-86704819D01*
X98713809Y-86704819D02*
X98809047Y-86752438D01*
X98809047Y-86752438D02*
X98856666Y-86800057D01*
X98856666Y-86800057D02*
X98904285Y-86895295D01*
X98904285Y-86895295D02*
X98951904Y-87085771D01*
X98951904Y-87085771D02*
X98951904Y-87323866D01*
X98951904Y-87323866D02*
X98904285Y-87514342D01*
X98904285Y-87514342D02*
X98856666Y-87609580D01*
X98856666Y-87609580D02*
X98809047Y-87657200D01*
X98809047Y-87657200D02*
X98713809Y-87704819D01*
X98713809Y-87704819D02*
X98618571Y-87704819D01*
X98618571Y-87704819D02*
X98523333Y-87657200D01*
X98523333Y-87657200D02*
X98475714Y-87609580D01*
X98475714Y-87609580D02*
X98428095Y-87514342D01*
X98428095Y-87514342D02*
X98380476Y-87323866D01*
X98380476Y-87323866D02*
X98380476Y-87085771D01*
X98380476Y-87085771D02*
X98428095Y-86895295D01*
X98428095Y-86895295D02*
X98475714Y-86800057D01*
X98475714Y-86800057D02*
X98523333Y-86752438D01*
X98523333Y-86752438D02*
X98618571Y-86704819D01*
X102631443Y-118704819D02*
X102298110Y-118228628D01*
X102060015Y-118704819D02*
X102060015Y-117704819D01*
X102060015Y-117704819D02*
X102440967Y-117704819D01*
X102440967Y-117704819D02*
X102536205Y-117752438D01*
X102536205Y-117752438D02*
X102583824Y-117800057D01*
X102583824Y-117800057D02*
X102631443Y-117895295D01*
X102631443Y-117895295D02*
X102631443Y-118038152D01*
X102631443Y-118038152D02*
X102583824Y-118133390D01*
X102583824Y-118133390D02*
X102536205Y-118181009D01*
X102536205Y-118181009D02*
X102440967Y-118228628D01*
X102440967Y-118228628D02*
X102060015Y-118228628D01*
X103488586Y-118038152D02*
X103488586Y-118704819D01*
X103250491Y-117657200D02*
X103012396Y-118371485D01*
X103012396Y-118371485D02*
X103631443Y-118371485D01*
X86204819Y-78135238D02*
X85728628Y-78468571D01*
X86204819Y-78706666D02*
X85204819Y-78706666D01*
X85204819Y-78706666D02*
X85204819Y-78325714D01*
X85204819Y-78325714D02*
X85252438Y-78230476D01*
X85252438Y-78230476D02*
X85300057Y-78182857D01*
X85300057Y-78182857D02*
X85395295Y-78135238D01*
X85395295Y-78135238D02*
X85538152Y-78135238D01*
X85538152Y-78135238D02*
X85633390Y-78182857D01*
X85633390Y-78182857D02*
X85681009Y-78230476D01*
X85681009Y-78230476D02*
X85728628Y-78325714D01*
X85728628Y-78325714D02*
X85728628Y-78706666D01*
X85204819Y-77849523D02*
X86204819Y-77516190D01*
X86204819Y-77516190D02*
X85204819Y-77182857D01*
X85300057Y-76897142D02*
X85252438Y-76849523D01*
X85252438Y-76849523D02*
X85204819Y-76754285D01*
X85204819Y-76754285D02*
X85204819Y-76516190D01*
X85204819Y-76516190D02*
X85252438Y-76420952D01*
X85252438Y-76420952D02*
X85300057Y-76373333D01*
X85300057Y-76373333D02*
X85395295Y-76325714D01*
X85395295Y-76325714D02*
X85490533Y-76325714D01*
X85490533Y-76325714D02*
X85633390Y-76373333D01*
X85633390Y-76373333D02*
X86204819Y-76944761D01*
X86204819Y-76944761D02*
X86204819Y-76325714D01*
X90559523Y-70431009D02*
X90226190Y-70431009D01*
X90226190Y-70954819D02*
X90226190Y-69954819D01*
X90226190Y-69954819D02*
X90702380Y-69954819D01*
X91654761Y-70954819D02*
X91321428Y-70478628D01*
X91083333Y-70954819D02*
X91083333Y-69954819D01*
X91083333Y-69954819D02*
X91464285Y-69954819D01*
X91464285Y-69954819D02*
X91559523Y-70002438D01*
X91559523Y-70002438D02*
X91607142Y-70050057D01*
X91607142Y-70050057D02*
X91654761Y-70145295D01*
X91654761Y-70145295D02*
X91654761Y-70288152D01*
X91654761Y-70288152D02*
X91607142Y-70383390D01*
X91607142Y-70383390D02*
X91559523Y-70431009D01*
X91559523Y-70431009D02*
X91464285Y-70478628D01*
X91464285Y-70478628D02*
X91083333Y-70478628D01*
X92083333Y-70431009D02*
X92416666Y-70431009D01*
X92559523Y-70954819D02*
X92083333Y-70954819D01*
X92083333Y-70954819D02*
X92083333Y-69954819D01*
X92083333Y-69954819D02*
X92559523Y-69954819D01*
X93654761Y-71050057D02*
X93559523Y-71002438D01*
X93559523Y-71002438D02*
X93464285Y-70907200D01*
X93464285Y-70907200D02*
X93321428Y-70764342D01*
X93321428Y-70764342D02*
X93226190Y-70716723D01*
X93226190Y-70716723D02*
X93130952Y-70716723D01*
X93178571Y-70954819D02*
X93083333Y-70907200D01*
X93083333Y-70907200D02*
X92988095Y-70811961D01*
X92988095Y-70811961D02*
X92940476Y-70621485D01*
X92940476Y-70621485D02*
X92940476Y-70288152D01*
X92940476Y-70288152D02*
X92988095Y-70097676D01*
X92988095Y-70097676D02*
X93083333Y-70002438D01*
X93083333Y-70002438D02*
X93178571Y-69954819D01*
X93178571Y-69954819D02*
X93369047Y-69954819D01*
X93369047Y-69954819D02*
X93464285Y-70002438D01*
X93464285Y-70002438D02*
X93559523Y-70097676D01*
X93559523Y-70097676D02*
X93607142Y-70288152D01*
X93607142Y-70288152D02*
X93607142Y-70621485D01*
X93607142Y-70621485D02*
X93559523Y-70811961D01*
X93559523Y-70811961D02*
X93464285Y-70907200D01*
X93464285Y-70907200D02*
X93369047Y-70954819D01*
X93369047Y-70954819D02*
X93178571Y-70954819D01*
X95273809Y-69954819D02*
X94797619Y-69954819D01*
X94797619Y-69954819D02*
X94750000Y-70431009D01*
X94750000Y-70431009D02*
X94797619Y-70383390D01*
X94797619Y-70383390D02*
X94892857Y-70335771D01*
X94892857Y-70335771D02*
X95130952Y-70335771D01*
X95130952Y-70335771D02*
X95226190Y-70383390D01*
X95226190Y-70383390D02*
X95273809Y-70431009D01*
X95273809Y-70431009D02*
X95321428Y-70526247D01*
X95321428Y-70526247D02*
X95321428Y-70764342D01*
X95321428Y-70764342D02*
X95273809Y-70859580D01*
X95273809Y-70859580D02*
X95226190Y-70907200D01*
X95226190Y-70907200D02*
X95130952Y-70954819D01*
X95130952Y-70954819D02*
X94892857Y-70954819D01*
X94892857Y-70954819D02*
X94797619Y-70907200D01*
X94797619Y-70907200D02*
X94750000Y-70859580D01*
X95750000Y-70954819D02*
X95750000Y-69954819D01*
X96321428Y-70954819D02*
X95892857Y-70383390D01*
X96321428Y-69954819D02*
X95750000Y-70526247D01*
X86204819Y-103135238D02*
X85728628Y-103468571D01*
X86204819Y-103706666D02*
X85204819Y-103706666D01*
X85204819Y-103706666D02*
X85204819Y-103325714D01*
X85204819Y-103325714D02*
X85252438Y-103230476D01*
X85252438Y-103230476D02*
X85300057Y-103182857D01*
X85300057Y-103182857D02*
X85395295Y-103135238D01*
X85395295Y-103135238D02*
X85538152Y-103135238D01*
X85538152Y-103135238D02*
X85633390Y-103182857D01*
X85633390Y-103182857D02*
X85681009Y-103230476D01*
X85681009Y-103230476D02*
X85728628Y-103325714D01*
X85728628Y-103325714D02*
X85728628Y-103706666D01*
X85204819Y-102849523D02*
X86204819Y-102516190D01*
X86204819Y-102516190D02*
X85204819Y-102182857D01*
X86204819Y-101325714D02*
X86204819Y-101897142D01*
X86204819Y-101611428D02*
X85204819Y-101611428D01*
X85204819Y-101611428D02*
X85347676Y-101706666D01*
X85347676Y-101706666D02*
X85442914Y-101801904D01*
X85442914Y-101801904D02*
X85490533Y-101897142D01*
X89583333Y-95907200D02*
X89726190Y-95954819D01*
X89726190Y-95954819D02*
X89964285Y-95954819D01*
X89964285Y-95954819D02*
X90059523Y-95907200D01*
X90059523Y-95907200D02*
X90107142Y-95859580D01*
X90107142Y-95859580D02*
X90154761Y-95764342D01*
X90154761Y-95764342D02*
X90154761Y-95669104D01*
X90154761Y-95669104D02*
X90107142Y-95573866D01*
X90107142Y-95573866D02*
X90059523Y-95526247D01*
X90059523Y-95526247D02*
X89964285Y-95478628D01*
X89964285Y-95478628D02*
X89773809Y-95431009D01*
X89773809Y-95431009D02*
X89678571Y-95383390D01*
X89678571Y-95383390D02*
X89630952Y-95335771D01*
X89630952Y-95335771D02*
X89583333Y-95240533D01*
X89583333Y-95240533D02*
X89583333Y-95145295D01*
X89583333Y-95145295D02*
X89630952Y-95050057D01*
X89630952Y-95050057D02*
X89678571Y-95002438D01*
X89678571Y-95002438D02*
X89773809Y-94954819D01*
X89773809Y-94954819D02*
X90011904Y-94954819D01*
X90011904Y-94954819D02*
X90154761Y-95002438D01*
X90583333Y-95954819D02*
X90583333Y-94954819D01*
X90964285Y-94954819D02*
X91630951Y-94954819D01*
X91630951Y-94954819D02*
X90964285Y-95954819D01*
X90964285Y-95954819D02*
X91630951Y-95954819D01*
X91916666Y-94954819D02*
X92583332Y-94954819D01*
X92583332Y-94954819D02*
X91916666Y-95954819D01*
X91916666Y-95954819D02*
X92583332Y-95954819D01*
X93440475Y-95954819D02*
X92964285Y-95954819D01*
X92964285Y-95954819D02*
X92964285Y-94954819D01*
X93773809Y-95431009D02*
X94107142Y-95431009D01*
X94249999Y-95954819D02*
X93773809Y-95954819D01*
X93773809Y-95954819D02*
X93773809Y-94954819D01*
X93773809Y-94954819D02*
X94249999Y-94954819D01*
X95964285Y-95954819D02*
X95392857Y-95954819D01*
X95678571Y-95954819D02*
X95678571Y-94954819D01*
X95678571Y-94954819D02*
X95583333Y-95097676D01*
X95583333Y-95097676D02*
X95488095Y-95192914D01*
X95488095Y-95192914D02*
X95392857Y-95240533D01*
X96583333Y-94954819D02*
X96678571Y-94954819D01*
X96678571Y-94954819D02*
X96773809Y-95002438D01*
X96773809Y-95002438D02*
X96821428Y-95050057D01*
X96821428Y-95050057D02*
X96869047Y-95145295D01*
X96869047Y-95145295D02*
X96916666Y-95335771D01*
X96916666Y-95335771D02*
X96916666Y-95573866D01*
X96916666Y-95573866D02*
X96869047Y-95764342D01*
X96869047Y-95764342D02*
X96821428Y-95859580D01*
X96821428Y-95859580D02*
X96773809Y-95907200D01*
X96773809Y-95907200D02*
X96678571Y-95954819D01*
X96678571Y-95954819D02*
X96583333Y-95954819D01*
X96583333Y-95954819D02*
X96488095Y-95907200D01*
X96488095Y-95907200D02*
X96440476Y-95859580D01*
X96440476Y-95859580D02*
X96392857Y-95764342D01*
X96392857Y-95764342D02*
X96345238Y-95573866D01*
X96345238Y-95573866D02*
X96345238Y-95335771D01*
X96345238Y-95335771D02*
X96392857Y-95145295D01*
X96392857Y-95145295D02*
X96440476Y-95050057D01*
X96440476Y-95050057D02*
X96488095Y-95002438D01*
X96488095Y-95002438D02*
X96583333Y-94954819D01*
X97345238Y-95954819D02*
X97345238Y-94954819D01*
X97916666Y-95954819D02*
X97488095Y-95383390D01*
X97916666Y-94954819D02*
X97345238Y-95526247D01*
X107107142Y-87704819D02*
X106773809Y-87228628D01*
X106535714Y-87704819D02*
X106535714Y-86704819D01*
X106535714Y-86704819D02*
X106916666Y-86704819D01*
X106916666Y-86704819D02*
X107011904Y-86752438D01*
X107011904Y-86752438D02*
X107059523Y-86800057D01*
X107059523Y-86800057D02*
X107107142Y-86895295D01*
X107107142Y-86895295D02*
X107107142Y-87038152D01*
X107107142Y-87038152D02*
X107059523Y-87133390D01*
X107059523Y-87133390D02*
X107011904Y-87181009D01*
X107011904Y-87181009D02*
X106916666Y-87228628D01*
X106916666Y-87228628D02*
X106535714Y-87228628D01*
X107488095Y-86800057D02*
X107535714Y-86752438D01*
X107535714Y-86752438D02*
X107630952Y-86704819D01*
X107630952Y-86704819D02*
X107869047Y-86704819D01*
X107869047Y-86704819D02*
X107964285Y-86752438D01*
X107964285Y-86752438D02*
X108011904Y-86800057D01*
X108011904Y-86800057D02*
X108059523Y-86895295D01*
X108059523Y-86895295D02*
X108059523Y-86990533D01*
X108059523Y-86990533D02*
X108011904Y-87133390D01*
X108011904Y-87133390D02*
X107440476Y-87704819D01*
X107440476Y-87704819D02*
X108059523Y-87704819D01*
X109011904Y-87704819D02*
X108440476Y-87704819D01*
X108726190Y-87704819D02*
X108726190Y-86704819D01*
X108726190Y-86704819D02*
X108630952Y-86847676D01*
X108630952Y-86847676D02*
X108535714Y-86942914D01*
X108535714Y-86942914D02*
X108440476Y-86990533D01*
X107404761Y-61704819D02*
X107071428Y-61228628D01*
X106833333Y-61704819D02*
X106833333Y-60704819D01*
X106833333Y-60704819D02*
X107214285Y-60704819D01*
X107214285Y-60704819D02*
X107309523Y-60752438D01*
X107309523Y-60752438D02*
X107357142Y-60800057D01*
X107357142Y-60800057D02*
X107404761Y-60895295D01*
X107404761Y-60895295D02*
X107404761Y-61038152D01*
X107404761Y-61038152D02*
X107357142Y-61133390D01*
X107357142Y-61133390D02*
X107309523Y-61181009D01*
X107309523Y-61181009D02*
X107214285Y-61228628D01*
X107214285Y-61228628D02*
X106833333Y-61228628D01*
X107690476Y-60704819D02*
X108023809Y-61704819D01*
X108023809Y-61704819D02*
X108357142Y-60704819D01*
X108833333Y-61133390D02*
X108738095Y-61085771D01*
X108738095Y-61085771D02*
X108690476Y-61038152D01*
X108690476Y-61038152D02*
X108642857Y-60942914D01*
X108642857Y-60942914D02*
X108642857Y-60895295D01*
X108642857Y-60895295D02*
X108690476Y-60800057D01*
X108690476Y-60800057D02*
X108738095Y-60752438D01*
X108738095Y-60752438D02*
X108833333Y-60704819D01*
X108833333Y-60704819D02*
X109023809Y-60704819D01*
X109023809Y-60704819D02*
X109119047Y-60752438D01*
X109119047Y-60752438D02*
X109166666Y-60800057D01*
X109166666Y-60800057D02*
X109214285Y-60895295D01*
X109214285Y-60895295D02*
X109214285Y-60942914D01*
X109214285Y-60942914D02*
X109166666Y-61038152D01*
X109166666Y-61038152D02*
X109119047Y-61085771D01*
X109119047Y-61085771D02*
X109023809Y-61133390D01*
X109023809Y-61133390D02*
X108833333Y-61133390D01*
X108833333Y-61133390D02*
X108738095Y-61181009D01*
X108738095Y-61181009D02*
X108690476Y-61228628D01*
X108690476Y-61228628D02*
X108642857Y-61323866D01*
X108642857Y-61323866D02*
X108642857Y-61514342D01*
X108642857Y-61514342D02*
X108690476Y-61609580D01*
X108690476Y-61609580D02*
X108738095Y-61657200D01*
X108738095Y-61657200D02*
X108833333Y-61704819D01*
X108833333Y-61704819D02*
X109023809Y-61704819D01*
X109023809Y-61704819D02*
X109119047Y-61657200D01*
X109119047Y-61657200D02*
X109166666Y-61609580D01*
X109166666Y-61609580D02*
X109214285Y-61514342D01*
X109214285Y-61514342D02*
X109214285Y-61323866D01*
X109214285Y-61323866D02*
X109166666Y-61228628D01*
X109166666Y-61228628D02*
X109119047Y-61181009D01*
X109119047Y-61181009D02*
X109023809Y-61133390D01*
X105359580Y-58738095D02*
X105407200Y-58785714D01*
X105407200Y-58785714D02*
X105454819Y-58928571D01*
X105454819Y-58928571D02*
X105454819Y-59023809D01*
X105454819Y-59023809D02*
X105407200Y-59166666D01*
X105407200Y-59166666D02*
X105311961Y-59261904D01*
X105311961Y-59261904D02*
X105216723Y-59309523D01*
X105216723Y-59309523D02*
X105026247Y-59357142D01*
X105026247Y-59357142D02*
X104883390Y-59357142D01*
X104883390Y-59357142D02*
X104692914Y-59309523D01*
X104692914Y-59309523D02*
X104597676Y-59261904D01*
X104597676Y-59261904D02*
X104502438Y-59166666D01*
X104502438Y-59166666D02*
X104454819Y-59023809D01*
X104454819Y-59023809D02*
X104454819Y-58928571D01*
X104454819Y-58928571D02*
X104502438Y-58785714D01*
X104502438Y-58785714D02*
X104550057Y-58738095D01*
X105454819Y-58309523D02*
X104454819Y-58309523D01*
X104931009Y-58309523D02*
X104931009Y-57738095D01*
X105454819Y-57738095D02*
X104454819Y-57738095D01*
X105454819Y-56499999D02*
X104454819Y-56499999D01*
X104454819Y-56499999D02*
X104454819Y-56261904D01*
X104454819Y-56261904D02*
X104502438Y-56119047D01*
X104502438Y-56119047D02*
X104597676Y-56023809D01*
X104597676Y-56023809D02*
X104692914Y-55976190D01*
X104692914Y-55976190D02*
X104883390Y-55928571D01*
X104883390Y-55928571D02*
X105026247Y-55928571D01*
X105026247Y-55928571D02*
X105216723Y-55976190D01*
X105216723Y-55976190D02*
X105311961Y-56023809D01*
X105311961Y-56023809D02*
X105407200Y-56119047D01*
X105407200Y-56119047D02*
X105454819Y-56261904D01*
X105454819Y-56261904D02*
X105454819Y-56499999D01*
X104931009Y-55499999D02*
X104931009Y-55166666D01*
X105454819Y-55023809D02*
X105454819Y-55499999D01*
X105454819Y-55499999D02*
X104454819Y-55499999D01*
X104454819Y-55499999D02*
X104454819Y-55023809D01*
X105359580Y-54023809D02*
X105407200Y-54071428D01*
X105407200Y-54071428D02*
X105454819Y-54214285D01*
X105454819Y-54214285D02*
X105454819Y-54309523D01*
X105454819Y-54309523D02*
X105407200Y-54452380D01*
X105407200Y-54452380D02*
X105311961Y-54547618D01*
X105311961Y-54547618D02*
X105216723Y-54595237D01*
X105216723Y-54595237D02*
X105026247Y-54642856D01*
X105026247Y-54642856D02*
X104883390Y-54642856D01*
X104883390Y-54642856D02*
X104692914Y-54595237D01*
X104692914Y-54595237D02*
X104597676Y-54547618D01*
X104597676Y-54547618D02*
X104502438Y-54452380D01*
X104502438Y-54452380D02*
X104454819Y-54309523D01*
X104454819Y-54309523D02*
X104454819Y-54214285D01*
X104454819Y-54214285D02*
X104502438Y-54071428D01*
X104502438Y-54071428D02*
X104550057Y-54023809D01*
X105169104Y-53642856D02*
X105169104Y-53166666D01*
X105454819Y-53738094D02*
X104454819Y-53404761D01*
X104454819Y-53404761D02*
X105454819Y-53071428D01*
X104978628Y-52547618D02*
X105454819Y-52547618D01*
X104454819Y-52880951D02*
X104978628Y-52547618D01*
X104978628Y-52547618D02*
X104454819Y-52214285D01*
X105454819Y-50595237D02*
X105454819Y-51166665D01*
X105454819Y-50880951D02*
X104454819Y-50880951D01*
X104454819Y-50880951D02*
X104597676Y-50976189D01*
X104597676Y-50976189D02*
X104692914Y-51071427D01*
X104692914Y-51071427D02*
X104740533Y-51166665D01*
X104454819Y-49976189D02*
X104454819Y-49880951D01*
X104454819Y-49880951D02*
X104502438Y-49785713D01*
X104502438Y-49785713D02*
X104550057Y-49738094D01*
X104550057Y-49738094D02*
X104645295Y-49690475D01*
X104645295Y-49690475D02*
X104835771Y-49642856D01*
X104835771Y-49642856D02*
X105073866Y-49642856D01*
X105073866Y-49642856D02*
X105264342Y-49690475D01*
X105264342Y-49690475D02*
X105359580Y-49738094D01*
X105359580Y-49738094D02*
X105407200Y-49785713D01*
X105407200Y-49785713D02*
X105454819Y-49880951D01*
X105454819Y-49880951D02*
X105454819Y-49976189D01*
X105454819Y-49976189D02*
X105407200Y-50071427D01*
X105407200Y-50071427D02*
X105359580Y-50119046D01*
X105359580Y-50119046D02*
X105264342Y-50166665D01*
X105264342Y-50166665D02*
X105073866Y-50214284D01*
X105073866Y-50214284D02*
X104835771Y-50214284D01*
X104835771Y-50214284D02*
X104645295Y-50166665D01*
X104645295Y-50166665D02*
X104550057Y-50119046D01*
X104550057Y-50119046D02*
X104502438Y-50071427D01*
X104502438Y-50071427D02*
X104454819Y-49976189D01*
X105454819Y-49214284D02*
X104454819Y-49214284D01*
X105454819Y-48642856D02*
X104883390Y-49071427D01*
X104454819Y-48642856D02*
X105026247Y-49214284D01*
X106670666Y-145212819D02*
X106670666Y-145927104D01*
X106670666Y-145927104D02*
X106623047Y-146069961D01*
X106623047Y-146069961D02*
X106527809Y-146165200D01*
X106527809Y-146165200D02*
X106384952Y-146212819D01*
X106384952Y-146212819D02*
X106289714Y-146212819D01*
X107670666Y-146212819D02*
X107099238Y-146212819D01*
X107384952Y-146212819D02*
X107384952Y-145212819D01*
X107384952Y-145212819D02*
X107289714Y-145355676D01*
X107289714Y-145355676D02*
X107194476Y-145450914D01*
X107194476Y-145450914D02*
X107099238Y-145498533D01*
X101940000Y-132512819D02*
X102130476Y-132512819D01*
X102130476Y-132512819D02*
X102225714Y-132560438D01*
X102225714Y-132560438D02*
X102320952Y-132655676D01*
X102320952Y-132655676D02*
X102368571Y-132846152D01*
X102368571Y-132846152D02*
X102368571Y-133179485D01*
X102368571Y-133179485D02*
X102320952Y-133369961D01*
X102320952Y-133369961D02*
X102225714Y-133465200D01*
X102225714Y-133465200D02*
X102130476Y-133512819D01*
X102130476Y-133512819D02*
X101940000Y-133512819D01*
X101940000Y-133512819D02*
X101844762Y-133465200D01*
X101844762Y-133465200D02*
X101749524Y-133369961D01*
X101749524Y-133369961D02*
X101701905Y-133179485D01*
X101701905Y-133179485D02*
X101701905Y-132846152D01*
X101701905Y-132846152D02*
X101749524Y-132655676D01*
X101749524Y-132655676D02*
X101844762Y-132560438D01*
X101844762Y-132560438D02*
X101940000Y-132512819D01*
X102797143Y-132512819D02*
X102797143Y-133322342D01*
X102797143Y-133322342D02*
X102844762Y-133417580D01*
X102844762Y-133417580D02*
X102892381Y-133465200D01*
X102892381Y-133465200D02*
X102987619Y-133512819D01*
X102987619Y-133512819D02*
X103178095Y-133512819D01*
X103178095Y-133512819D02*
X103273333Y-133465200D01*
X103273333Y-133465200D02*
X103320952Y-133417580D01*
X103320952Y-133417580D02*
X103368571Y-133322342D01*
X103368571Y-133322342D02*
X103368571Y-132512819D01*
X103701905Y-132512819D02*
X104273333Y-132512819D01*
X103987619Y-133512819D02*
X103987619Y-132512819D01*
X107107142Y-64204819D02*
X106773809Y-63728628D01*
X106535714Y-64204819D02*
X106535714Y-63204819D01*
X106535714Y-63204819D02*
X106916666Y-63204819D01*
X106916666Y-63204819D02*
X107011904Y-63252438D01*
X107011904Y-63252438D02*
X107059523Y-63300057D01*
X107059523Y-63300057D02*
X107107142Y-63395295D01*
X107107142Y-63395295D02*
X107107142Y-63538152D01*
X107107142Y-63538152D02*
X107059523Y-63633390D01*
X107059523Y-63633390D02*
X107011904Y-63681009D01*
X107011904Y-63681009D02*
X106916666Y-63728628D01*
X106916666Y-63728628D02*
X106535714Y-63728628D01*
X107488095Y-63300057D02*
X107535714Y-63252438D01*
X107535714Y-63252438D02*
X107630952Y-63204819D01*
X107630952Y-63204819D02*
X107869047Y-63204819D01*
X107869047Y-63204819D02*
X107964285Y-63252438D01*
X107964285Y-63252438D02*
X108011904Y-63300057D01*
X108011904Y-63300057D02*
X108059523Y-63395295D01*
X108059523Y-63395295D02*
X108059523Y-63490533D01*
X108059523Y-63490533D02*
X108011904Y-63633390D01*
X108011904Y-63633390D02*
X107440476Y-64204819D01*
X107440476Y-64204819D02*
X108059523Y-64204819D01*
X108535714Y-64204819D02*
X108726190Y-64204819D01*
X108726190Y-64204819D02*
X108821428Y-64157200D01*
X108821428Y-64157200D02*
X108869047Y-64109580D01*
X108869047Y-64109580D02*
X108964285Y-63966723D01*
X108964285Y-63966723D02*
X109011904Y-63776247D01*
X109011904Y-63776247D02*
X109011904Y-63395295D01*
X109011904Y-63395295D02*
X108964285Y-63300057D01*
X108964285Y-63300057D02*
X108916666Y-63252438D01*
X108916666Y-63252438D02*
X108821428Y-63204819D01*
X108821428Y-63204819D02*
X108630952Y-63204819D01*
X108630952Y-63204819D02*
X108535714Y-63252438D01*
X108535714Y-63252438D02*
X108488095Y-63300057D01*
X108488095Y-63300057D02*
X108440476Y-63395295D01*
X108440476Y-63395295D02*
X108440476Y-63633390D01*
X108440476Y-63633390D02*
X108488095Y-63728628D01*
X108488095Y-63728628D02*
X108535714Y-63776247D01*
X108535714Y-63776247D02*
X108630952Y-63823866D01*
X108630952Y-63823866D02*
X108821428Y-63823866D01*
X108821428Y-63823866D02*
X108916666Y-63776247D01*
X108916666Y-63776247D02*
X108964285Y-63728628D01*
X108964285Y-63728628D02*
X109011904Y-63633390D01*
X110107142Y-108454819D02*
X109773809Y-107978628D01*
X109535714Y-108454819D02*
X109535714Y-107454819D01*
X109535714Y-107454819D02*
X109916666Y-107454819D01*
X109916666Y-107454819D02*
X110011904Y-107502438D01*
X110011904Y-107502438D02*
X110059523Y-107550057D01*
X110059523Y-107550057D02*
X110107142Y-107645295D01*
X110107142Y-107645295D02*
X110107142Y-107788152D01*
X110107142Y-107788152D02*
X110059523Y-107883390D01*
X110059523Y-107883390D02*
X110011904Y-107931009D01*
X110011904Y-107931009D02*
X109916666Y-107978628D01*
X109916666Y-107978628D02*
X109535714Y-107978628D01*
X111059523Y-108454819D02*
X110488095Y-108454819D01*
X110773809Y-108454819D02*
X110773809Y-107454819D01*
X110773809Y-107454819D02*
X110678571Y-107597676D01*
X110678571Y-107597676D02*
X110583333Y-107692914D01*
X110583333Y-107692914D02*
X110488095Y-107740533D01*
X111440476Y-107550057D02*
X111488095Y-107502438D01*
X111488095Y-107502438D02*
X111583333Y-107454819D01*
X111583333Y-107454819D02*
X111821428Y-107454819D01*
X111821428Y-107454819D02*
X111916666Y-107502438D01*
X111916666Y-107502438D02*
X111964285Y-107550057D01*
X111964285Y-107550057D02*
X112011904Y-107645295D01*
X112011904Y-107645295D02*
X112011904Y-107740533D01*
X112011904Y-107740533D02*
X111964285Y-107883390D01*
X111964285Y-107883390D02*
X111392857Y-108454819D01*
X111392857Y-108454819D02*
X112011904Y-108454819D01*
X102619553Y-121887261D02*
X102286220Y-121411070D01*
X102048125Y-121887261D02*
X102048125Y-120887261D01*
X102048125Y-120887261D02*
X102429077Y-120887261D01*
X102429077Y-120887261D02*
X102524315Y-120934880D01*
X102524315Y-120934880D02*
X102571934Y-120982499D01*
X102571934Y-120982499D02*
X102619553Y-121077737D01*
X102619553Y-121077737D02*
X102619553Y-121220594D01*
X102619553Y-121220594D02*
X102571934Y-121315832D01*
X102571934Y-121315832D02*
X102524315Y-121363451D01*
X102524315Y-121363451D02*
X102429077Y-121411070D01*
X102429077Y-121411070D02*
X102048125Y-121411070D01*
X102952887Y-120887261D02*
X103571934Y-120887261D01*
X103571934Y-120887261D02*
X103238601Y-121268213D01*
X103238601Y-121268213D02*
X103381458Y-121268213D01*
X103381458Y-121268213D02*
X103476696Y-121315832D01*
X103476696Y-121315832D02*
X103524315Y-121363451D01*
X103524315Y-121363451D02*
X103571934Y-121458689D01*
X103571934Y-121458689D02*
X103571934Y-121696784D01*
X103571934Y-121696784D02*
X103524315Y-121792022D01*
X103524315Y-121792022D02*
X103476696Y-121839642D01*
X103476696Y-121839642D02*
X103381458Y-121887261D01*
X103381458Y-121887261D02*
X103095744Y-121887261D01*
X103095744Y-121887261D02*
X103000506Y-121839642D01*
X103000506Y-121839642D02*
X102952887Y-121792022D01*
X116670666Y-126662819D02*
X116670666Y-127377104D01*
X116670666Y-127377104D02*
X116623047Y-127519961D01*
X116623047Y-127519961D02*
X116527809Y-127615200D01*
X116527809Y-127615200D02*
X116384952Y-127662819D01*
X116384952Y-127662819D02*
X116289714Y-127662819D01*
X117051619Y-126662819D02*
X117670666Y-126662819D01*
X117670666Y-126662819D02*
X117337333Y-127043771D01*
X117337333Y-127043771D02*
X117480190Y-127043771D01*
X117480190Y-127043771D02*
X117575428Y-127091390D01*
X117575428Y-127091390D02*
X117623047Y-127139009D01*
X117623047Y-127139009D02*
X117670666Y-127234247D01*
X117670666Y-127234247D02*
X117670666Y-127472342D01*
X117670666Y-127472342D02*
X117623047Y-127567580D01*
X117623047Y-127567580D02*
X117575428Y-127615200D01*
X117575428Y-127615200D02*
X117480190Y-127662819D01*
X117480190Y-127662819D02*
X117194476Y-127662819D01*
X117194476Y-127662819D02*
X117099238Y-127615200D01*
X117099238Y-127615200D02*
X117051619Y-127567580D01*
X110725714Y-114867580D02*
X110678095Y-114915200D01*
X110678095Y-114915200D02*
X110535238Y-114962819D01*
X110535238Y-114962819D02*
X110440000Y-114962819D01*
X110440000Y-114962819D02*
X110297143Y-114915200D01*
X110297143Y-114915200D02*
X110201905Y-114819961D01*
X110201905Y-114819961D02*
X110154286Y-114724723D01*
X110154286Y-114724723D02*
X110106667Y-114534247D01*
X110106667Y-114534247D02*
X110106667Y-114391390D01*
X110106667Y-114391390D02*
X110154286Y-114200914D01*
X110154286Y-114200914D02*
X110201905Y-114105676D01*
X110201905Y-114105676D02*
X110297143Y-114010438D01*
X110297143Y-114010438D02*
X110440000Y-113962819D01*
X110440000Y-113962819D02*
X110535238Y-113962819D01*
X110535238Y-113962819D02*
X110678095Y-114010438D01*
X110678095Y-114010438D02*
X110725714Y-114058057D01*
X111154286Y-114962819D02*
X111154286Y-113962819D01*
X111154286Y-114439009D02*
X111725714Y-114439009D01*
X111725714Y-114962819D02*
X111725714Y-113962819D01*
X112820953Y-113962819D02*
X113392381Y-113962819D01*
X113106667Y-114962819D02*
X113106667Y-113962819D01*
X114297143Y-114962819D02*
X113963810Y-114486628D01*
X113725715Y-114962819D02*
X113725715Y-113962819D01*
X113725715Y-113962819D02*
X114106667Y-113962819D01*
X114106667Y-113962819D02*
X114201905Y-114010438D01*
X114201905Y-114010438D02*
X114249524Y-114058057D01*
X114249524Y-114058057D02*
X114297143Y-114153295D01*
X114297143Y-114153295D02*
X114297143Y-114296152D01*
X114297143Y-114296152D02*
X114249524Y-114391390D01*
X114249524Y-114391390D02*
X114201905Y-114439009D01*
X114201905Y-114439009D02*
X114106667Y-114486628D01*
X114106667Y-114486628D02*
X113725715Y-114486628D01*
X114725715Y-114962819D02*
X114725715Y-113962819D01*
X115725714Y-114010438D02*
X115630476Y-113962819D01*
X115630476Y-113962819D02*
X115487619Y-113962819D01*
X115487619Y-113962819D02*
X115344762Y-114010438D01*
X115344762Y-114010438D02*
X115249524Y-114105676D01*
X115249524Y-114105676D02*
X115201905Y-114200914D01*
X115201905Y-114200914D02*
X115154286Y-114391390D01*
X115154286Y-114391390D02*
X115154286Y-114534247D01*
X115154286Y-114534247D02*
X115201905Y-114724723D01*
X115201905Y-114724723D02*
X115249524Y-114819961D01*
X115249524Y-114819961D02*
X115344762Y-114915200D01*
X115344762Y-114915200D02*
X115487619Y-114962819D01*
X115487619Y-114962819D02*
X115582857Y-114962819D01*
X115582857Y-114962819D02*
X115725714Y-114915200D01*
X115725714Y-114915200D02*
X115773333Y-114867580D01*
X115773333Y-114867580D02*
X115773333Y-114534247D01*
X115773333Y-114534247D02*
X115582857Y-114534247D01*
X103083333Y-130561470D02*
X103035714Y-130609090D01*
X103035714Y-130609090D02*
X102892857Y-130656709D01*
X102892857Y-130656709D02*
X102797619Y-130656709D01*
X102797619Y-130656709D02*
X102654762Y-130609090D01*
X102654762Y-130609090D02*
X102559524Y-130513851D01*
X102559524Y-130513851D02*
X102511905Y-130418613D01*
X102511905Y-130418613D02*
X102464286Y-130228137D01*
X102464286Y-130228137D02*
X102464286Y-130085280D01*
X102464286Y-130085280D02*
X102511905Y-129894804D01*
X102511905Y-129894804D02*
X102559524Y-129799566D01*
X102559524Y-129799566D02*
X102654762Y-129704328D01*
X102654762Y-129704328D02*
X102797619Y-129656709D01*
X102797619Y-129656709D02*
X102892857Y-129656709D01*
X102892857Y-129656709D02*
X103035714Y-129704328D01*
X103035714Y-129704328D02*
X103083333Y-129751947D01*
X103940476Y-129656709D02*
X103750000Y-129656709D01*
X103750000Y-129656709D02*
X103654762Y-129704328D01*
X103654762Y-129704328D02*
X103607143Y-129751947D01*
X103607143Y-129751947D02*
X103511905Y-129894804D01*
X103511905Y-129894804D02*
X103464286Y-130085280D01*
X103464286Y-130085280D02*
X103464286Y-130466232D01*
X103464286Y-130466232D02*
X103511905Y-130561470D01*
X103511905Y-130561470D02*
X103559524Y-130609090D01*
X103559524Y-130609090D02*
X103654762Y-130656709D01*
X103654762Y-130656709D02*
X103845238Y-130656709D01*
X103845238Y-130656709D02*
X103940476Y-130609090D01*
X103940476Y-130609090D02*
X103988095Y-130561470D01*
X103988095Y-130561470D02*
X104035714Y-130466232D01*
X104035714Y-130466232D02*
X104035714Y-130228137D01*
X104035714Y-130228137D02*
X103988095Y-130132899D01*
X103988095Y-130132899D02*
X103940476Y-130085280D01*
X103940476Y-130085280D02*
X103845238Y-130037661D01*
X103845238Y-130037661D02*
X103654762Y-130037661D01*
X103654762Y-130037661D02*
X103559524Y-130085280D01*
X103559524Y-130085280D02*
X103511905Y-130132899D01*
X103511905Y-130132899D02*
X103464286Y-130228137D01*
X90446905Y-137744819D02*
X90446905Y-136744819D01*
X90446905Y-136744819D02*
X90685000Y-136744819D01*
X90685000Y-136744819D02*
X90827857Y-136792438D01*
X90827857Y-136792438D02*
X90923095Y-136887676D01*
X90923095Y-136887676D02*
X90970714Y-136982914D01*
X90970714Y-136982914D02*
X91018333Y-137173390D01*
X91018333Y-137173390D02*
X91018333Y-137316247D01*
X91018333Y-137316247D02*
X90970714Y-137506723D01*
X90970714Y-137506723D02*
X90923095Y-137601961D01*
X90923095Y-137601961D02*
X90827857Y-137697200D01*
X90827857Y-137697200D02*
X90685000Y-137744819D01*
X90685000Y-137744819D02*
X90446905Y-137744819D01*
X91970714Y-137744819D02*
X91399286Y-137744819D01*
X91685000Y-137744819D02*
X91685000Y-136744819D01*
X91685000Y-136744819D02*
X91589762Y-136887676D01*
X91589762Y-136887676D02*
X91494524Y-136982914D01*
X91494524Y-136982914D02*
X91399286Y-137030533D01*
X110032857Y-95807200D02*
X110175714Y-95854819D01*
X110175714Y-95854819D02*
X110413809Y-95854819D01*
X110413809Y-95854819D02*
X110509047Y-95807200D01*
X110509047Y-95807200D02*
X110556666Y-95759580D01*
X110556666Y-95759580D02*
X110604285Y-95664342D01*
X110604285Y-95664342D02*
X110604285Y-95569104D01*
X110604285Y-95569104D02*
X110556666Y-95473866D01*
X110556666Y-95473866D02*
X110509047Y-95426247D01*
X110509047Y-95426247D02*
X110413809Y-95378628D01*
X110413809Y-95378628D02*
X110223333Y-95331009D01*
X110223333Y-95331009D02*
X110128095Y-95283390D01*
X110128095Y-95283390D02*
X110080476Y-95235771D01*
X110080476Y-95235771D02*
X110032857Y-95140533D01*
X110032857Y-95140533D02*
X110032857Y-95045295D01*
X110032857Y-95045295D02*
X110080476Y-94950057D01*
X110080476Y-94950057D02*
X110128095Y-94902438D01*
X110128095Y-94902438D02*
X110223333Y-94854819D01*
X110223333Y-94854819D02*
X110461428Y-94854819D01*
X110461428Y-94854819D02*
X110604285Y-94902438D01*
X111032857Y-94854819D02*
X111032857Y-95664342D01*
X111032857Y-95664342D02*
X111080476Y-95759580D01*
X111080476Y-95759580D02*
X111128095Y-95807200D01*
X111128095Y-95807200D02*
X111223333Y-95854819D01*
X111223333Y-95854819D02*
X111413809Y-95854819D01*
X111413809Y-95854819D02*
X111509047Y-95807200D01*
X111509047Y-95807200D02*
X111556666Y-95759580D01*
X111556666Y-95759580D02*
X111604285Y-95664342D01*
X111604285Y-95664342D02*
X111604285Y-94854819D01*
X112032857Y-95807200D02*
X112175714Y-95854819D01*
X112175714Y-95854819D02*
X112413809Y-95854819D01*
X112413809Y-95854819D02*
X112509047Y-95807200D01*
X112509047Y-95807200D02*
X112556666Y-95759580D01*
X112556666Y-95759580D02*
X112604285Y-95664342D01*
X112604285Y-95664342D02*
X112604285Y-95569104D01*
X112604285Y-95569104D02*
X112556666Y-95473866D01*
X112556666Y-95473866D02*
X112509047Y-95426247D01*
X112509047Y-95426247D02*
X112413809Y-95378628D01*
X112413809Y-95378628D02*
X112223333Y-95331009D01*
X112223333Y-95331009D02*
X112128095Y-95283390D01*
X112128095Y-95283390D02*
X112080476Y-95235771D01*
X112080476Y-95235771D02*
X112032857Y-95140533D01*
X112032857Y-95140533D02*
X112032857Y-95045295D01*
X112032857Y-95045295D02*
X112080476Y-94950057D01*
X112080476Y-94950057D02*
X112128095Y-94902438D01*
X112128095Y-94902438D02*
X112223333Y-94854819D01*
X112223333Y-94854819D02*
X112461428Y-94854819D01*
X112461428Y-94854819D02*
X112604285Y-94902438D01*
X112890000Y-94854819D02*
X113461428Y-94854819D01*
X113175714Y-95854819D02*
X113175714Y-94854819D01*
X113747143Y-95569104D02*
X114223333Y-95569104D01*
X113651905Y-95854819D02*
X113985238Y-94854819D01*
X113985238Y-94854819D02*
X114318571Y-95854819D01*
X114651905Y-95854819D02*
X114651905Y-94854819D01*
X115128095Y-95854819D02*
X115128095Y-94854819D01*
X115128095Y-94854819D02*
X115699523Y-95854819D01*
X115699523Y-95854819D02*
X115699523Y-94854819D01*
X97654761Y-129800057D02*
X97559523Y-129752438D01*
X97559523Y-129752438D02*
X97464285Y-129657200D01*
X97464285Y-129657200D02*
X97321428Y-129514342D01*
X97321428Y-129514342D02*
X97226190Y-129466723D01*
X97226190Y-129466723D02*
X97130952Y-129466723D01*
X97178571Y-129704819D02*
X97083333Y-129657200D01*
X97083333Y-129657200D02*
X96988095Y-129561961D01*
X96988095Y-129561961D02*
X96940476Y-129371485D01*
X96940476Y-129371485D02*
X96940476Y-129038152D01*
X96940476Y-129038152D02*
X96988095Y-128847676D01*
X96988095Y-128847676D02*
X97083333Y-128752438D01*
X97083333Y-128752438D02*
X97178571Y-128704819D01*
X97178571Y-128704819D02*
X97369047Y-128704819D01*
X97369047Y-128704819D02*
X97464285Y-128752438D01*
X97464285Y-128752438D02*
X97559523Y-128847676D01*
X97559523Y-128847676D02*
X97607142Y-129038152D01*
X97607142Y-129038152D02*
X97607142Y-129371485D01*
X97607142Y-129371485D02*
X97559523Y-129561961D01*
X97559523Y-129561961D02*
X97464285Y-129657200D01*
X97464285Y-129657200D02*
X97369047Y-129704819D01*
X97369047Y-129704819D02*
X97178571Y-129704819D01*
X98559523Y-129704819D02*
X97988095Y-129704819D01*
X98273809Y-129704819D02*
X98273809Y-128704819D01*
X98273809Y-128704819D02*
X98178571Y-128847676D01*
X98178571Y-128847676D02*
X98083333Y-128942914D01*
X98083333Y-128942914D02*
X97988095Y-128990533D01*
X97154761Y-61704819D02*
X96821428Y-61228628D01*
X96583333Y-61704819D02*
X96583333Y-60704819D01*
X96583333Y-60704819D02*
X96964285Y-60704819D01*
X96964285Y-60704819D02*
X97059523Y-60752438D01*
X97059523Y-60752438D02*
X97107142Y-60800057D01*
X97107142Y-60800057D02*
X97154761Y-60895295D01*
X97154761Y-60895295D02*
X97154761Y-61038152D01*
X97154761Y-61038152D02*
X97107142Y-61133390D01*
X97107142Y-61133390D02*
X97059523Y-61181009D01*
X97059523Y-61181009D02*
X96964285Y-61228628D01*
X96964285Y-61228628D02*
X96583333Y-61228628D01*
X97440476Y-60704819D02*
X97773809Y-61704819D01*
X97773809Y-61704819D02*
X98107142Y-60704819D01*
X98916666Y-60704819D02*
X98440476Y-60704819D01*
X98440476Y-60704819D02*
X98392857Y-61181009D01*
X98392857Y-61181009D02*
X98440476Y-61133390D01*
X98440476Y-61133390D02*
X98535714Y-61085771D01*
X98535714Y-61085771D02*
X98773809Y-61085771D01*
X98773809Y-61085771D02*
X98869047Y-61133390D01*
X98869047Y-61133390D02*
X98916666Y-61181009D01*
X98916666Y-61181009D02*
X98964285Y-61276247D01*
X98964285Y-61276247D02*
X98964285Y-61514342D01*
X98964285Y-61514342D02*
X98916666Y-61609580D01*
X98916666Y-61609580D02*
X98869047Y-61657200D01*
X98869047Y-61657200D02*
X98773809Y-61704819D01*
X98773809Y-61704819D02*
X98535714Y-61704819D01*
X98535714Y-61704819D02*
X98440476Y-61657200D01*
X98440476Y-61657200D02*
X98392857Y-61609580D01*
X99454819Y-59619047D02*
X99454819Y-59428571D01*
X99454819Y-59428571D02*
X99502438Y-59333333D01*
X99502438Y-59333333D02*
X99597676Y-59238095D01*
X99597676Y-59238095D02*
X99788152Y-59190476D01*
X99788152Y-59190476D02*
X100121485Y-59190476D01*
X100121485Y-59190476D02*
X100311961Y-59238095D01*
X100311961Y-59238095D02*
X100407200Y-59333333D01*
X100407200Y-59333333D02*
X100454819Y-59428571D01*
X100454819Y-59428571D02*
X100454819Y-59619047D01*
X100454819Y-59619047D02*
X100407200Y-59714285D01*
X100407200Y-59714285D02*
X100311961Y-59809523D01*
X100311961Y-59809523D02*
X100121485Y-59857142D01*
X100121485Y-59857142D02*
X99788152Y-59857142D01*
X99788152Y-59857142D02*
X99597676Y-59809523D01*
X99597676Y-59809523D02*
X99502438Y-59714285D01*
X99502438Y-59714285D02*
X99454819Y-59619047D01*
X100454819Y-58761904D02*
X99454819Y-58761904D01*
X99931009Y-58761904D02*
X99931009Y-58190476D01*
X100454819Y-58190476D02*
X99454819Y-58190476D01*
X100454819Y-56952380D02*
X99454819Y-56952380D01*
X99454819Y-56952380D02*
X99454819Y-56714285D01*
X99454819Y-56714285D02*
X99502438Y-56571428D01*
X99502438Y-56571428D02*
X99597676Y-56476190D01*
X99597676Y-56476190D02*
X99692914Y-56428571D01*
X99692914Y-56428571D02*
X99883390Y-56380952D01*
X99883390Y-56380952D02*
X100026247Y-56380952D01*
X100026247Y-56380952D02*
X100216723Y-56428571D01*
X100216723Y-56428571D02*
X100311961Y-56476190D01*
X100311961Y-56476190D02*
X100407200Y-56571428D01*
X100407200Y-56571428D02*
X100454819Y-56714285D01*
X100454819Y-56714285D02*
X100454819Y-56952380D01*
X99931009Y-55952380D02*
X99931009Y-55619047D01*
X100454819Y-55476190D02*
X100454819Y-55952380D01*
X100454819Y-55952380D02*
X99454819Y-55952380D01*
X99454819Y-55952380D02*
X99454819Y-55476190D01*
X100359580Y-54476190D02*
X100407200Y-54523809D01*
X100407200Y-54523809D02*
X100454819Y-54666666D01*
X100454819Y-54666666D02*
X100454819Y-54761904D01*
X100454819Y-54761904D02*
X100407200Y-54904761D01*
X100407200Y-54904761D02*
X100311961Y-54999999D01*
X100311961Y-54999999D02*
X100216723Y-55047618D01*
X100216723Y-55047618D02*
X100026247Y-55095237D01*
X100026247Y-55095237D02*
X99883390Y-55095237D01*
X99883390Y-55095237D02*
X99692914Y-55047618D01*
X99692914Y-55047618D02*
X99597676Y-54999999D01*
X99597676Y-54999999D02*
X99502438Y-54904761D01*
X99502438Y-54904761D02*
X99454819Y-54761904D01*
X99454819Y-54761904D02*
X99454819Y-54666666D01*
X99454819Y-54666666D02*
X99502438Y-54523809D01*
X99502438Y-54523809D02*
X99550057Y-54476190D01*
X100169104Y-54095237D02*
X100169104Y-53619047D01*
X100454819Y-54190475D02*
X99454819Y-53857142D01*
X99454819Y-53857142D02*
X100454819Y-53523809D01*
X99978628Y-52999999D02*
X100454819Y-52999999D01*
X99454819Y-53333332D02*
X99978628Y-52999999D01*
X99978628Y-52999999D02*
X99454819Y-52666666D01*
X100454819Y-51047618D02*
X100454819Y-51619046D01*
X100454819Y-51333332D02*
X99454819Y-51333332D01*
X99454819Y-51333332D02*
X99597676Y-51428570D01*
X99597676Y-51428570D02*
X99692914Y-51523808D01*
X99692914Y-51523808D02*
X99740533Y-51619046D01*
X99454819Y-50428570D02*
X99454819Y-50333332D01*
X99454819Y-50333332D02*
X99502438Y-50238094D01*
X99502438Y-50238094D02*
X99550057Y-50190475D01*
X99550057Y-50190475D02*
X99645295Y-50142856D01*
X99645295Y-50142856D02*
X99835771Y-50095237D01*
X99835771Y-50095237D02*
X100073866Y-50095237D01*
X100073866Y-50095237D02*
X100264342Y-50142856D01*
X100264342Y-50142856D02*
X100359580Y-50190475D01*
X100359580Y-50190475D02*
X100407200Y-50238094D01*
X100407200Y-50238094D02*
X100454819Y-50333332D01*
X100454819Y-50333332D02*
X100454819Y-50428570D01*
X100454819Y-50428570D02*
X100407200Y-50523808D01*
X100407200Y-50523808D02*
X100359580Y-50571427D01*
X100359580Y-50571427D02*
X100264342Y-50619046D01*
X100264342Y-50619046D02*
X100073866Y-50666665D01*
X100073866Y-50666665D02*
X99835771Y-50666665D01*
X99835771Y-50666665D02*
X99645295Y-50619046D01*
X99645295Y-50619046D02*
X99550057Y-50571427D01*
X99550057Y-50571427D02*
X99502438Y-50523808D01*
X99502438Y-50523808D02*
X99454819Y-50428570D01*
X99454819Y-49476189D02*
X99454819Y-49380951D01*
X99454819Y-49380951D02*
X99502438Y-49285713D01*
X99502438Y-49285713D02*
X99550057Y-49238094D01*
X99550057Y-49238094D02*
X99645295Y-49190475D01*
X99645295Y-49190475D02*
X99835771Y-49142856D01*
X99835771Y-49142856D02*
X100073866Y-49142856D01*
X100073866Y-49142856D02*
X100264342Y-49190475D01*
X100264342Y-49190475D02*
X100359580Y-49238094D01*
X100359580Y-49238094D02*
X100407200Y-49285713D01*
X100407200Y-49285713D02*
X100454819Y-49380951D01*
X100454819Y-49380951D02*
X100454819Y-49476189D01*
X100454819Y-49476189D02*
X100407200Y-49571427D01*
X100407200Y-49571427D02*
X100359580Y-49619046D01*
X100359580Y-49619046D02*
X100264342Y-49666665D01*
X100264342Y-49666665D02*
X100073866Y-49714284D01*
X100073866Y-49714284D02*
X99835771Y-49714284D01*
X99835771Y-49714284D02*
X99645295Y-49666665D01*
X99645295Y-49666665D02*
X99550057Y-49619046D01*
X99550057Y-49619046D02*
X99502438Y-49571427D01*
X99502438Y-49571427D02*
X99454819Y-49476189D01*
X100454819Y-48714284D02*
X99454819Y-48714284D01*
X100454819Y-48142856D02*
X99883390Y-48571427D01*
X99454819Y-48142856D02*
X100026247Y-48714284D01*
X107904761Y-129300057D02*
X107809523Y-129252438D01*
X107809523Y-129252438D02*
X107714285Y-129157200D01*
X107714285Y-129157200D02*
X107571428Y-129014342D01*
X107571428Y-129014342D02*
X107476190Y-128966723D01*
X107476190Y-128966723D02*
X107380952Y-128966723D01*
X107428571Y-129204819D02*
X107333333Y-129157200D01*
X107333333Y-129157200D02*
X107238095Y-129061961D01*
X107238095Y-129061961D02*
X107190476Y-128871485D01*
X107190476Y-128871485D02*
X107190476Y-128538152D01*
X107190476Y-128538152D02*
X107238095Y-128347676D01*
X107238095Y-128347676D02*
X107333333Y-128252438D01*
X107333333Y-128252438D02*
X107428571Y-128204819D01*
X107428571Y-128204819D02*
X107619047Y-128204819D01*
X107619047Y-128204819D02*
X107714285Y-128252438D01*
X107714285Y-128252438D02*
X107809523Y-128347676D01*
X107809523Y-128347676D02*
X107857142Y-128538152D01*
X107857142Y-128538152D02*
X107857142Y-128871485D01*
X107857142Y-128871485D02*
X107809523Y-129061961D01*
X107809523Y-129061961D02*
X107714285Y-129157200D01*
X107714285Y-129157200D02*
X107619047Y-129204819D01*
X107619047Y-129204819D02*
X107428571Y-129204819D01*
X108238095Y-128300057D02*
X108285714Y-128252438D01*
X108285714Y-128252438D02*
X108380952Y-128204819D01*
X108380952Y-128204819D02*
X108619047Y-128204819D01*
X108619047Y-128204819D02*
X108714285Y-128252438D01*
X108714285Y-128252438D02*
X108761904Y-128300057D01*
X108761904Y-128300057D02*
X108809523Y-128395295D01*
X108809523Y-128395295D02*
X108809523Y-128490533D01*
X108809523Y-128490533D02*
X108761904Y-128633390D01*
X108761904Y-128633390D02*
X108190476Y-129204819D01*
X108190476Y-129204819D02*
X108809523Y-129204819D01*
X102583333Y-115487261D02*
X102250000Y-115011070D01*
X102011905Y-115487261D02*
X102011905Y-114487261D01*
X102011905Y-114487261D02*
X102392857Y-114487261D01*
X102392857Y-114487261D02*
X102488095Y-114534880D01*
X102488095Y-114534880D02*
X102535714Y-114582499D01*
X102535714Y-114582499D02*
X102583333Y-114677737D01*
X102583333Y-114677737D02*
X102583333Y-114820594D01*
X102583333Y-114820594D02*
X102535714Y-114915832D01*
X102535714Y-114915832D02*
X102488095Y-114963451D01*
X102488095Y-114963451D02*
X102392857Y-115011070D01*
X102392857Y-115011070D02*
X102011905Y-115011070D01*
X103488095Y-114487261D02*
X103011905Y-114487261D01*
X103011905Y-114487261D02*
X102964286Y-114963451D01*
X102964286Y-114963451D02*
X103011905Y-114915832D01*
X103011905Y-114915832D02*
X103107143Y-114868213D01*
X103107143Y-114868213D02*
X103345238Y-114868213D01*
X103345238Y-114868213D02*
X103440476Y-114915832D01*
X103440476Y-114915832D02*
X103488095Y-114963451D01*
X103488095Y-114963451D02*
X103535714Y-115058689D01*
X103535714Y-115058689D02*
X103535714Y-115296784D01*
X103535714Y-115296784D02*
X103488095Y-115392022D01*
X103488095Y-115392022D02*
X103440476Y-115439642D01*
X103440476Y-115439642D02*
X103345238Y-115487261D01*
X103345238Y-115487261D02*
X103107143Y-115487261D01*
X103107143Y-115487261D02*
X103011905Y-115439642D01*
X103011905Y-115439642D02*
X102964286Y-115392022D01*
X101333333Y-112359580D02*
X101285714Y-112407200D01*
X101285714Y-112407200D02*
X101142857Y-112454819D01*
X101142857Y-112454819D02*
X101047619Y-112454819D01*
X101047619Y-112454819D02*
X100904762Y-112407200D01*
X100904762Y-112407200D02*
X100809524Y-112311961D01*
X100809524Y-112311961D02*
X100761905Y-112216723D01*
X100761905Y-112216723D02*
X100714286Y-112026247D01*
X100714286Y-112026247D02*
X100714286Y-111883390D01*
X100714286Y-111883390D02*
X100761905Y-111692914D01*
X100761905Y-111692914D02*
X100809524Y-111597676D01*
X100809524Y-111597676D02*
X100904762Y-111502438D01*
X100904762Y-111502438D02*
X101047619Y-111454819D01*
X101047619Y-111454819D02*
X101142857Y-111454819D01*
X101142857Y-111454819D02*
X101285714Y-111502438D01*
X101285714Y-111502438D02*
X101333333Y-111550057D01*
X102285714Y-112454819D02*
X101714286Y-112454819D01*
X102000000Y-112454819D02*
X102000000Y-111454819D01*
X102000000Y-111454819D02*
X101904762Y-111597676D01*
X101904762Y-111597676D02*
X101809524Y-111692914D01*
X101809524Y-111692914D02*
X101714286Y-111740533D01*
X96670666Y-126792819D02*
X96670666Y-127507104D01*
X96670666Y-127507104D02*
X96623047Y-127649961D01*
X96623047Y-127649961D02*
X96527809Y-127745200D01*
X96527809Y-127745200D02*
X96384952Y-127792819D01*
X96384952Y-127792819D02*
X96289714Y-127792819D01*
X97099238Y-126888057D02*
X97146857Y-126840438D01*
X97146857Y-126840438D02*
X97242095Y-126792819D01*
X97242095Y-126792819D02*
X97480190Y-126792819D01*
X97480190Y-126792819D02*
X97575428Y-126840438D01*
X97575428Y-126840438D02*
X97623047Y-126888057D01*
X97623047Y-126888057D02*
X97670666Y-126983295D01*
X97670666Y-126983295D02*
X97670666Y-127078533D01*
X97670666Y-127078533D02*
X97623047Y-127221390D01*
X97623047Y-127221390D02*
X97051619Y-127792819D01*
X97051619Y-127792819D02*
X97670666Y-127792819D01*
X90320952Y-114092819D02*
X90511428Y-114092819D01*
X90511428Y-114092819D02*
X90606666Y-114140438D01*
X90606666Y-114140438D02*
X90701904Y-114235676D01*
X90701904Y-114235676D02*
X90749523Y-114426152D01*
X90749523Y-114426152D02*
X90749523Y-114759485D01*
X90749523Y-114759485D02*
X90701904Y-114949961D01*
X90701904Y-114949961D02*
X90606666Y-115045200D01*
X90606666Y-115045200D02*
X90511428Y-115092819D01*
X90511428Y-115092819D02*
X90320952Y-115092819D01*
X90320952Y-115092819D02*
X90225714Y-115045200D01*
X90225714Y-115045200D02*
X90130476Y-114949961D01*
X90130476Y-114949961D02*
X90082857Y-114759485D01*
X90082857Y-114759485D02*
X90082857Y-114426152D01*
X90082857Y-114426152D02*
X90130476Y-114235676D01*
X90130476Y-114235676D02*
X90225714Y-114140438D01*
X90225714Y-114140438D02*
X90320952Y-114092819D01*
X91178095Y-115092819D02*
X91178095Y-114092819D01*
X91178095Y-114569009D02*
X91749523Y-114569009D01*
X91749523Y-115092819D02*
X91749523Y-114092819D01*
X92844762Y-114092819D02*
X93416190Y-114092819D01*
X93130476Y-115092819D02*
X93130476Y-114092819D01*
X94320952Y-115092819D02*
X93987619Y-114616628D01*
X93749524Y-115092819D02*
X93749524Y-114092819D01*
X93749524Y-114092819D02*
X94130476Y-114092819D01*
X94130476Y-114092819D02*
X94225714Y-114140438D01*
X94225714Y-114140438D02*
X94273333Y-114188057D01*
X94273333Y-114188057D02*
X94320952Y-114283295D01*
X94320952Y-114283295D02*
X94320952Y-114426152D01*
X94320952Y-114426152D02*
X94273333Y-114521390D01*
X94273333Y-114521390D02*
X94225714Y-114569009D01*
X94225714Y-114569009D02*
X94130476Y-114616628D01*
X94130476Y-114616628D02*
X93749524Y-114616628D01*
X94749524Y-115092819D02*
X94749524Y-114092819D01*
X95749523Y-114140438D02*
X95654285Y-114092819D01*
X95654285Y-114092819D02*
X95511428Y-114092819D01*
X95511428Y-114092819D02*
X95368571Y-114140438D01*
X95368571Y-114140438D02*
X95273333Y-114235676D01*
X95273333Y-114235676D02*
X95225714Y-114330914D01*
X95225714Y-114330914D02*
X95178095Y-114521390D01*
X95178095Y-114521390D02*
X95178095Y-114664247D01*
X95178095Y-114664247D02*
X95225714Y-114854723D01*
X95225714Y-114854723D02*
X95273333Y-114949961D01*
X95273333Y-114949961D02*
X95368571Y-115045200D01*
X95368571Y-115045200D02*
X95511428Y-115092819D01*
X95511428Y-115092819D02*
X95606666Y-115092819D01*
X95606666Y-115092819D02*
X95749523Y-115045200D01*
X95749523Y-115045200D02*
X95797142Y-114997580D01*
X95797142Y-114997580D02*
X95797142Y-114664247D01*
X95797142Y-114664247D02*
X95606666Y-114664247D01*
D12*
%TO.C,D4*%
X112875000Y-139014000D02*
X112875000Y-139170000D01*
X112875000Y-141330000D02*
X112875000Y-141486000D01*
X116107334Y-139171392D02*
G75*
G03*
X112875001Y-139014485I-1672334J-1078608D01*
G01*
X115476129Y-139170164D02*
G75*
G03*
X113394040Y-139170001I-1041129J-1079836D01*
G01*
X113394040Y-141329999D02*
G75*
G03*
X115476129Y-141329836I1040960J1079999D01*
G01*
X112875001Y-141485515D02*
G75*
G03*
X116107334Y-141328608I1559999J1235515D01*
G01*
%TO.C,RV6*%
X108060000Y-83370000D02*
X108060000Y-78650000D01*
X109250000Y-83370000D02*
X108070000Y-83370000D01*
X112150000Y-83370000D02*
X111620000Y-83370000D01*
X114600000Y-83370000D02*
X113770000Y-83370000D01*
X117810000Y-83370000D02*
X116320000Y-83370000D01*
X117810000Y-83370000D02*
X117810000Y-78650000D01*
X108070000Y-74840000D02*
X108070000Y-71780000D01*
X117810000Y-74840000D02*
X117810000Y-71780000D01*
X117810000Y-71780000D02*
X108070000Y-71780000D01*
%TO.C,R20*%
X94420000Y-62380000D02*
X100960000Y-62380000D01*
X94420000Y-62710000D02*
X94420000Y-62380000D01*
X94420000Y-64790000D02*
X94420000Y-65120000D01*
X94420000Y-65120000D02*
X100960000Y-65120000D01*
X100960000Y-62380000D02*
X100960000Y-62710000D01*
X100960000Y-65120000D02*
X100960000Y-64790000D01*
%TO.C,R10*%
X94420000Y-85880000D02*
X100960000Y-85880000D01*
X94420000Y-86210000D02*
X94420000Y-85880000D01*
X94420000Y-88290000D02*
X94420000Y-88620000D01*
X94420000Y-88620000D02*
X100960000Y-88620000D01*
X100960000Y-85880000D02*
X100960000Y-86210000D01*
X100960000Y-88620000D02*
X100960000Y-88290000D01*
%TO.C,R4*%
X106020000Y-119637558D02*
X99480000Y-119637558D01*
X106020000Y-119307558D02*
X106020000Y-119637558D01*
X106020000Y-117227558D02*
X106020000Y-116897558D01*
X106020000Y-116897558D02*
X99480000Y-116897558D01*
X99480000Y-119637558D02*
X99480000Y-119307558D01*
X99480000Y-116897558D02*
X99480000Y-117227558D01*
%TO.C,RV2*%
X88010000Y-83370000D02*
X88010000Y-78650000D01*
X89200000Y-83370000D02*
X88020000Y-83370000D01*
X92100000Y-83370000D02*
X91570000Y-83370000D01*
X94550000Y-83370000D02*
X93720000Y-83370000D01*
X97760000Y-83370000D02*
X96270000Y-83370000D01*
X97760000Y-83370000D02*
X97760000Y-78650000D01*
X88020000Y-74840000D02*
X88020000Y-71780000D01*
X97760000Y-74840000D02*
X97760000Y-71780000D01*
X97760000Y-71780000D02*
X88020000Y-71780000D01*
%TO.C,RV1*%
X88010000Y-108370000D02*
X88010000Y-103650000D01*
X89200000Y-108370000D02*
X88020000Y-108370000D01*
X92100000Y-108370000D02*
X91570000Y-108370000D01*
X94550000Y-108370000D02*
X93720000Y-108370000D01*
X97760000Y-108370000D02*
X96270000Y-108370000D01*
X97760000Y-108370000D02*
X97760000Y-103650000D01*
X88020000Y-99840000D02*
X88020000Y-96780000D01*
X97760000Y-99840000D02*
X97760000Y-96780000D01*
X97760000Y-96780000D02*
X88020000Y-96780000D01*
%TO.C,R21*%
X104480000Y-85880000D02*
X111020000Y-85880000D01*
X104480000Y-86210000D02*
X104480000Y-85880000D01*
X104480000Y-88290000D02*
X104480000Y-88620000D01*
X104480000Y-88620000D02*
X111020000Y-88620000D01*
X111020000Y-85880000D02*
X111020000Y-86210000D01*
X111020000Y-88620000D02*
X111020000Y-88290000D01*
%TO.C,RV8*%
X108060000Y-58345000D02*
X108060000Y-53625000D01*
X109250000Y-58345000D02*
X108070000Y-58345000D01*
X112150000Y-58345000D02*
X111620000Y-58345000D01*
X114600000Y-58345000D02*
X113770000Y-58345000D01*
X117810000Y-58345000D02*
X116320000Y-58345000D01*
X117810000Y-58345000D02*
X117810000Y-53625000D01*
X108070000Y-49815000D02*
X108070000Y-46755000D01*
X117810000Y-49815000D02*
X117810000Y-46755000D01*
X117810000Y-46755000D02*
X108070000Y-46755000D01*
D11*
%TO.C,J1*%
X98440000Y-133970000D02*
X98440000Y-144870000D01*
X98440000Y-133970000D02*
X107440000Y-133970000D01*
X98440000Y-144870000D02*
X107440000Y-144870000D01*
X101140000Y-140170000D02*
X104740000Y-140170000D01*
X102940000Y-138370000D02*
X102940000Y-141970000D01*
X107440000Y-133970000D02*
X107440000Y-144870000D01*
X104740000Y-140170000D02*
G75*
G03*
X104740000Y-140170000I-1800000J0D01*
G01*
D12*
%TO.C,R29*%
X111020000Y-65120000D02*
X104480000Y-65120000D01*
X111020000Y-64790000D02*
X111020000Y-65120000D01*
X111020000Y-62710000D02*
X111020000Y-62380000D01*
X111020000Y-62380000D02*
X104480000Y-62380000D01*
X104480000Y-65120000D02*
X104480000Y-64790000D01*
X104480000Y-62380000D02*
X104480000Y-62710000D01*
%TO.C,R12*%
X107480000Y-106630000D02*
X114020000Y-106630000D01*
X107480000Y-106960000D02*
X107480000Y-106630000D01*
X107480000Y-109040000D02*
X107480000Y-109370000D01*
X107480000Y-109370000D02*
X114020000Y-109370000D01*
X114020000Y-106630000D02*
X114020000Y-106960000D01*
X114020000Y-109370000D02*
X114020000Y-109040000D01*
%TO.C,R3*%
X106008110Y-122870000D02*
X99468110Y-122870000D01*
X106008110Y-122540000D02*
X106008110Y-122870000D01*
X106008110Y-120460000D02*
X106008110Y-120130000D01*
X106008110Y-120130000D02*
X99468110Y-120130000D01*
X99468110Y-122870000D02*
X99468110Y-122540000D01*
X99468110Y-120130000D02*
X99468110Y-120460000D01*
D11*
%TO.C,J3*%
X108440000Y-115420000D02*
X108440000Y-126320000D01*
X108440000Y-115420000D02*
X117440000Y-115420000D01*
X108440000Y-126320000D02*
X117440000Y-126320000D01*
X111140000Y-121620000D02*
X114740000Y-121620000D01*
X112940000Y-119820000D02*
X112940000Y-123420000D01*
X117440000Y-115420000D02*
X117440000Y-126320000D01*
X114740000Y-121620000D02*
G75*
G03*
X114740000Y-121620000I-1800000J0D01*
G01*
D12*
%TO.C,C6*%
X105520000Y-131320000D02*
X105520000Y-131305000D01*
X105520000Y-131320000D02*
X100980000Y-131320000D01*
X105520000Y-129195000D02*
X105520000Y-129180000D01*
X105520000Y-129180000D02*
X100980000Y-129180000D01*
X100980000Y-131320000D02*
X100980000Y-131305000D01*
X100980000Y-129195000D02*
X100980000Y-129180000D01*
%TO.C,D1*%
X89625000Y-139014000D02*
X89625000Y-139170000D01*
X89625000Y-141330000D02*
X89625000Y-141486000D01*
X92857334Y-139171392D02*
G75*
G03*
X89625001Y-139014485I-1672334J-1078608D01*
G01*
X92226129Y-139170164D02*
G75*
G03*
X90144040Y-139170001I-1041129J-1079836D01*
G01*
X90144040Y-141329999D02*
G75*
G03*
X92226129Y-141329836I1040960J1079999D01*
G01*
X89625001Y-141485515D02*
G75*
G03*
X92857334Y-141328608I1559999J1235515D01*
G01*
%TO.C,SW1*%
X105905000Y-97305000D02*
X119875000Y-97305000D01*
X105905000Y-106195000D02*
X105905000Y-97305000D01*
X109715000Y-101750000D02*
X110985000Y-98575000D01*
X110985000Y-98575000D02*
X114795000Y-98575000D01*
X110985000Y-104925000D02*
X109715000Y-101750000D01*
X114795000Y-98575000D02*
X116065000Y-101750000D01*
X114795000Y-104925000D02*
X110985000Y-104925000D01*
X116065000Y-101750000D02*
X114795000Y-104925000D01*
X119875000Y-97305000D02*
X119875000Y-106195000D01*
X119875000Y-106195000D02*
X105905000Y-106195000D01*
X116592654Y-101750000D02*
G75*
G03*
X116592654Y-101750000I-3702654J0D01*
G01*
%TO.C,Q1*%
X97900000Y-124220000D02*
X97900000Y-127820000D01*
X102199999Y-125200000D02*
G75*
G03*
X97908260Y-124208126I-2449999J-820000D01*
G01*
X97922316Y-127828445D02*
G75*
G03*
X102200000Y-126800000I1827684J1808445D01*
G01*
%TO.C,RV5*%
X88060000Y-58370000D02*
X88060000Y-53650000D01*
X89250000Y-58370000D02*
X88070000Y-58370000D01*
X92150000Y-58370000D02*
X91620000Y-58370000D01*
X94600000Y-58370000D02*
X93770000Y-58370000D01*
X97810000Y-58370000D02*
X96320000Y-58370000D01*
X97810000Y-58370000D02*
X97810000Y-53650000D01*
X88070000Y-49840000D02*
X88070000Y-46780000D01*
X97810000Y-49840000D02*
X97810000Y-46780000D01*
X97810000Y-46780000D02*
X88070000Y-46780000D01*
%TO.C,Q2*%
X103130000Y-124200000D02*
X103130000Y-127800000D01*
X107429999Y-125180000D02*
G75*
G03*
X103138260Y-124188126I-2449999J-820000D01*
G01*
X103152316Y-127808445D02*
G75*
G03*
X107430000Y-126780000I1827684J1808445D01*
G01*
%TO.C,R5*%
X106020000Y-116370000D02*
X99480000Y-116370000D01*
X106020000Y-116040000D02*
X106020000Y-116370000D01*
X106020000Y-113960000D02*
X106020000Y-113630000D01*
X106020000Y-113630000D02*
X99480000Y-113630000D01*
X99480000Y-116370000D02*
X99480000Y-116040000D01*
X99480000Y-113630000D02*
X99480000Y-113960000D01*
%TO.C,C1*%
X103770000Y-113070000D02*
X103770000Y-113055000D01*
X103770000Y-113070000D02*
X99230000Y-113070000D01*
X103770000Y-110945000D02*
X103770000Y-110930000D01*
X103770000Y-110930000D02*
X99230000Y-110930000D01*
X99230000Y-113070000D02*
X99230000Y-113055000D01*
X99230000Y-110945000D02*
X99230000Y-110930000D01*
D11*
%TO.C,J2*%
X88440000Y-115550000D02*
X88440000Y-126450000D01*
X88440000Y-115550000D02*
X97440000Y-115550000D01*
X88440000Y-126450000D02*
X97440000Y-126450000D01*
X91140000Y-121750000D02*
X94740000Y-121750000D01*
X92940000Y-119950000D02*
X92940000Y-123550000D01*
X97440000Y-115550000D02*
X97440000Y-126450000D01*
X94740000Y-121750000D02*
G75*
G03*
X94740000Y-121750000I-1800000J0D01*
G01*
%TD*%
D13*
%TO.C,J1*%
X102940000Y-146650000D03*
X102940000Y-143550000D03*
X102940000Y-135250000D03*
%TD*%
%TO.C,J3*%
X112940000Y-128100000D03*
X112940000Y-125000000D03*
X112940000Y-116700000D03*
%TD*%
%TO.C,J2*%
X92940000Y-128230000D03*
X92940000Y-125130000D03*
X92940000Y-116830000D03*
%TD*%
M02*
