%TF.GenerationSoftware,KiCad,Pcbnew,7.0.8*%
%TF.CreationDate,2023-11-07T01:36:42+01:00*%
%TF.ProjectId,Hagiwo HiHats,48616769-776f-4204-9869-486174732e6b,rev?*%
%TF.SameCoordinates,Original*%
%TF.FileFunction,Soldermask,Bot*%
%TF.FilePolarity,Negative*%
%FSLAX46Y46*%
G04 Gerber Fmt 4.6, Leading zero omitted, Abs format (unit mm)*
G04 Created by KiCad (PCBNEW 7.0.8) date 2023-11-07 01:36:42*
%MOMM*%
%LPD*%
G01*
G04 APERTURE LIST*
G04 Aperture macros list*
%AMRoundRect*
0 Rectangle with rounded corners*
0 $1 Rounding radius*
0 $2 $3 $4 $5 $6 $7 $8 $9 X,Y pos of 4 corners*
0 Add a 4 corners polygon primitive as box body*
4,1,4,$2,$3,$4,$5,$6,$7,$8,$9,$2,$3,0*
0 Add four circle primitives for the rounded corners*
1,1,$1+$1,$2,$3*
1,1,$1+$1,$4,$5*
1,1,$1+$1,$6,$7*
1,1,$1+$1,$8,$9*
0 Add four rect primitives between the rounded corners*
20,1,$1+$1,$2,$3,$4,$5,0*
20,1,$1+$1,$4,$5,$6,$7,0*
20,1,$1+$1,$6,$7,$8,$9,0*
20,1,$1+$1,$8,$9,$2,$3,0*%
G04 Aperture macros list end*
%ADD10R,1.800000X1.800000*%
%ADD11C,1.800000*%
%ADD12O,2.720000X3.240000*%
%ADD13C,1.600000*%
%ADD14O,1.600000X1.600000*%
%ADD15O,3.200000X5.000000*%
%ADD16R,1.800000X1.100000*%
%ADD17RoundRect,0.275000X-0.625000X0.275000X-0.625000X-0.275000X0.625000X-0.275000X0.625000X0.275000X0*%
%ADD18R,1.700000X1.700000*%
%ADD19O,1.700000X1.700000*%
G04 APERTURE END LIST*
D10*
%TO.C,D4*%
X113165000Y-140250000D03*
D11*
X115705000Y-140250000D03*
%TD*%
D12*
%TO.C,RV6*%
X108140000Y-76750000D03*
X117740000Y-76750000D03*
D10*
X110440000Y-84250000D03*
D11*
X112940000Y-84250000D03*
X115440000Y-84250000D03*
%TD*%
D13*
%TO.C,R20*%
X93880000Y-63750000D03*
D14*
X101500000Y-63750000D03*
%TD*%
D13*
%TO.C,R10*%
X93880000Y-87250000D03*
D14*
X101500000Y-87250000D03*
%TD*%
D13*
%TO.C,R4*%
X106560000Y-118267558D03*
D14*
X98940000Y-118267558D03*
%TD*%
D12*
%TO.C,RV2*%
X88090000Y-76750000D03*
X97690000Y-76750000D03*
D10*
X90390000Y-84250000D03*
D11*
X92890000Y-84250000D03*
X95390000Y-84250000D03*
%TD*%
D12*
%TO.C,RV1*%
X88090000Y-101750000D03*
X97690000Y-101750000D03*
D10*
X90390000Y-109250000D03*
D11*
X92890000Y-109250000D03*
X95390000Y-109250000D03*
%TD*%
D13*
%TO.C,R21*%
X103940000Y-87250000D03*
D14*
X111560000Y-87250000D03*
%TD*%
D12*
%TO.C,RV8*%
X108140000Y-51725000D03*
X117740000Y-51725000D03*
D10*
X110440000Y-59225000D03*
D11*
X112940000Y-59225000D03*
X115440000Y-59225000D03*
%TD*%
%TO.C,J1*%
X102940000Y-146650000D03*
X102940000Y-143550000D03*
X102940000Y-135250000D03*
%TD*%
D13*
%TO.C,R29*%
X111560000Y-63750000D03*
D14*
X103940000Y-63750000D03*
%TD*%
D13*
%TO.C,R12*%
X106940000Y-108000000D03*
D14*
X114560000Y-108000000D03*
%TD*%
D13*
%TO.C,R3*%
X106548110Y-121500000D03*
D14*
X98928110Y-121500000D03*
%TD*%
D11*
%TO.C,J3*%
X112940000Y-128100000D03*
X112940000Y-125000000D03*
X112940000Y-116700000D03*
%TD*%
D13*
%TO.C,C6*%
X105750000Y-130250000D03*
X100750000Y-130250000D03*
%TD*%
D10*
%TO.C,D1*%
X89915000Y-140250000D03*
D11*
X92455000Y-140250000D03*
%TD*%
D15*
%TO.C,SW1*%
X108440000Y-101750000D03*
X112890000Y-101750000D03*
X117340000Y-101750000D03*
%TD*%
D16*
%TO.C,Q1*%
X99350000Y-124750000D03*
D17*
X101420000Y-126020000D03*
X99350000Y-127290000D03*
%TD*%
D12*
%TO.C,RV5*%
X88140000Y-51750000D03*
X97740000Y-51750000D03*
D10*
X90440000Y-59250000D03*
D11*
X92940000Y-59250000D03*
X95440000Y-59250000D03*
%TD*%
D16*
%TO.C,Q2*%
X104580000Y-124730000D03*
D17*
X106650000Y-126000000D03*
X104580000Y-127270000D03*
%TD*%
D13*
%TO.C,R5*%
X106560000Y-115000000D03*
D14*
X98940000Y-115000000D03*
%TD*%
D13*
%TO.C,C1*%
X104000000Y-112000000D03*
X99000000Y-112000000D03*
%TD*%
D11*
%TO.C,J2*%
X92940000Y-128230000D03*
X92940000Y-125130000D03*
X92940000Y-116830000D03*
%TD*%
D18*
%TO.C,J7*%
X121000000Y-49000000D03*
D19*
X121000000Y-51540000D03*
X121000000Y-54080000D03*
%TD*%
D18*
%TO.C,J9*%
X121250000Y-112420000D03*
D19*
X121250000Y-114960000D03*
X121250000Y-117500000D03*
%TD*%
D18*
%TO.C,J11*%
X84750000Y-127750000D03*
D19*
X84750000Y-130290000D03*
%TD*%
D18*
%TO.C,J5*%
X84750000Y-49000000D03*
D19*
X84750000Y-51540000D03*
X84750000Y-54080000D03*
X84750000Y-56620000D03*
X84750000Y-59160000D03*
X84750000Y-61700000D03*
%TD*%
M02*
